testbench/ALU_tb.vcd
$date
	Mon Jul 26 21:48:13 2021
$end
$version
	Icarus Verilog
$end
$timescale
	1ps
$end
$scope module ALU_tb $end
$var reg 4 ! A [3:0] $end
$var reg 4 " B [3:0] $end
$var reg 5 # opcode [4:0] $end
$var reg 4 $ refC [3:0] $end
$var reg 4 % refStatus [3:0] $end
$var integer 32 & i [31:0] $end
$var integer 32 ' j [31:0] $end
$scope function ref_model $end
$var reg 4 ( A [3:0] $end
$var reg 4 ) B [3:0] $end
$var reg 5 * C [4:0] $end
$var reg 5 + opcode [4:0] $end
$var reg 4 , status [3:0] $end
$upscope $end
$scope module alu $end
$var wire 4 - A [3:0] $end
$var wire 4 . B [3:0] $end
$var wire 1 / carry $end
$var wire 1 0 carry_SHU $end
$var wire 5 1 opcode [4:0] $end
$var wire 1 2 zero $end
$var wire 4 3 w4 [3:0] $end
$var wire 4 4 w3 [3:0] $end
$var wire 4 5 w2 [3:0] $end
$var wire 4 6 w1 [3:0] $end
$var wire 4 7 status [3:0] $end
$var wire 1 8 sign $end
$var wire 1 9 parity $end
$var wire 1 : carry_AU $end
$var wire 4 ; C [3:0] $end
$scope begin genblk1[0] $end
$scope module m1 $end
$var wire 2 < D [1:0] $end
$var wire 1 = S $end
$var wire 1 > Y $end
$scope begin genblk1 $end
$scope module stage0_mux $end
$var wire 2 ? D [1:0] $end
$var wire 1 = S $end
$var wire 1 > Y $end
$upscope $end
$upscope $end
$upscope $end
$scope module m2 $end
$var wire 2 @ D [1:0] $end
$var wire 1 A S $end
$var wire 1 B Y $end
$scope begin genblk1 $end
$scope module stage0_mux $end
$var wire 2 C D [1:0] $end
$var wire 1 A S $end
$var wire 1 B Y $end
$upscope $end
$upscope $end
$upscope $end
$upscope $end
$scope begin genblk1[1] $end
$scope module m1 $end
$var wire 2 D D [1:0] $end
$var wire 1 E S $end
$var wire 1 F Y $end
$scope begin genblk1 $end
$scope module stage0_mux $end
$var wire 2 G D [1:0] $end
$var wire 1 E S $end
$var wire 1 F Y $end
$upscope $end
$upscope $end
$upscope $end
$scope module m2 $end
$var wire 2 H D [1:0] $end
$var wire 1 I S $end
$var wire 1 J Y $end
$scope begin genblk1 $end
$scope module stage0_mux $end
$var wire 2 K D [1:0] $end
$var wire 1 I S $end
$var wire 1 J Y $end
$upscope $end
$upscope $end
$upscope $end
$upscope $end
$scope begin genblk1[2] $end
$scope module m1 $end
$var wire 2 L D [1:0] $end
$var wire 1 M S $end
$var wire 1 N Y $end
$scope begin genblk1 $end
$scope module stage0_mux $end
$var wire 2 O D [1:0] $end
$var wire 1 M S $end
$var wire 1 N Y $end
$upscope $end
$upscope $end
$upscope $end
$scope module m2 $end
$var wire 2 P D [1:0] $end
$var wire 1 Q S $end
$var wire 1 R Y $end
$scope begin genblk1 $end
$scope module stage0_mux $end
$var wire 2 S D [1:0] $end
$var wire 1 Q S $end
$var wire 1 R Y $end
$upscope $end
$upscope $end
$upscope $end
$upscope $end
$scope begin genblk1[3] $end
$scope module m1 $end
$var wire 2 T D [1:0] $end
$var wire 1 U S $end
$var wire 1 V Y $end
$scope begin genblk1 $end
$scope module stage0_mux $end
$var wire 2 W D [1:0] $end
$var wire 1 U S $end
$var wire 1 V Y $end
$upscope $end
$upscope $end
$upscope $end
$scope module m2 $end
$var wire 2 X D [1:0] $end
$var wire 1 Y S $end
$var wire 1 Z Y $end
$scope begin genblk1 $end
$scope module stage0_mux $end
$var wire 2 [ D [1:0] $end
$var wire 1 Y S $end
$var wire 1 Z Y $end
$upscope $end
$upscope $end
$upscope $end
$upscope $end
$scope module aui $end
$var wire 4 \ A [3:0] $end
$var wire 4 ] B [3:0] $end
$var wire 3 ^ opcode [2:0] $end
$var wire 4 _ w1 [3:0] $end
$var wire 5 ` c [4:0] $end
$var wire 4 a S [3:0] $end
$var wire 1 : Cout $end
$var wire 1 b Cin $end
$scope begin genblk1[0] $end
$scope module fa $end
$var wire 1 c A $end
$var wire 1 d B $end
$var wire 1 e Cin $end
$var wire 1 f Cout $end
$var wire 1 g w3 $end
$var wire 1 h w2 $end
$var wire 1 i w1 $end
$var wire 1 j S $end
$scope module h1 $end
$var wire 1 c A $end
$var wire 1 d B $end
$var wire 1 h Cout $end
$var wire 1 i S $end
$upscope $end
$scope module h2 $end
$var wire 1 i A $end
$var wire 1 e B $end
$var wire 1 g Cout $end
$var wire 1 j S $end
$upscope $end
$upscope $end
$scope module m1 $end
$var wire 4 k D [3:0] $end
$var wire 2 l S [1:0] $end
$var wire 1 m Y $end
$scope begin genblk2 $end
$var wire 2 n stage0_in [1:0] $end
$scope module stage0_mux $end
$var wire 2 o D [1:0] $end
$var wire 1 p S $end
$var wire 1 m Y $end
$upscope $end
$scope module stage1_mux0 $end
$var wire 2 q D [1:0] $end
$var wire 1 r S $end
$var wire 1 s Y $end
$scope begin genblk1 $end
$scope module stage0_mux $end
$var wire 2 t D [1:0] $end
$var wire 1 r S $end
$var wire 1 s Y $end
$upscope $end
$upscope $end
$upscope $end
$scope module stage1_mux1 $end
$var wire 2 u D [1:0] $end
$var wire 1 v S $end
$var wire 1 w Y $end
$scope begin genblk1 $end
$scope module stage0_mux $end
$var wire 2 x D [1:0] $end
$var wire 1 v S $end
$var wire 1 w Y $end
$upscope $end
$upscope $end
$upscope $end
$upscope $end
$upscope $end
$upscope $end
$scope begin genblk1[1] $end
$scope module fa $end
$var wire 1 y A $end
$var wire 1 z B $end
$var wire 1 { Cin $end
$var wire 1 | Cout $end
$var wire 1 } w3 $end
$var wire 1 ~ w2 $end
$var wire 1 !" w1 $end
$var wire 1 "" S $end
$scope module h1 $end
$var wire 1 y A $end
$var wire 1 z B $end
$var wire 1 ~ Cout $end
$var wire 1 !" S $end
$upscope $end
$scope module h2 $end
$var wire 1 !" A $end
$var wire 1 { B $end
$var wire 1 } Cout $end
$var wire 1 "" S $end
$upscope $end
$upscope $end
$scope module m1 $end
$var wire 4 #" D [3:0] $end
$var wire 2 $" S [1:0] $end
$var wire 1 %" Y $end
$scope begin genblk2 $end
$var wire 2 &" stage0_in [1:0] $end
$scope module stage0_mux $end
$var wire 2 '" D [1:0] $end
$var wire 1 (" S $end
$var wire 1 %" Y $end
$upscope $end
$scope module stage1_mux0 $end
$var wire 2 )" D [1:0] $end
$var wire 1 *" S $end
$var wire 1 +" Y $end
$scope begin genblk1 $end
$scope module stage0_mux $end
$var wire 2 ," D [1:0] $end
$var wire 1 *" S $end
$var wire 1 +" Y $end
$upscope $end
$upscope $end
$upscope $end
$scope module stage1_mux1 $end
$var wire 2 -" D [1:0] $end
$var wire 1 ." S $end
$var wire 1 /" Y $end
$scope begin genblk1 $end
$scope module stage0_mux $end
$var wire 2 0" D [1:0] $end
$var wire 1 ." S $end
$var wire 1 /" Y $end
$upscope $end
$upscope $end
$upscope $end
$upscope $end
$upscope $end
$upscope $end
$scope begin genblk1[2] $end
$scope module fa $end
$var wire 1 1" A $end
$var wire 1 2" B $end
$var wire 1 3" Cin $end
$var wire 1 4" Cout $end
$var wire 1 5" w3 $end
$var wire 1 6" w2 $end
$var wire 1 7" w1 $end
$var wire 1 8" S $end
$scope module h1 $end
$var wire 1 1" A $end
$var wire 1 2" B $end
$var wire 1 6" Cout $end
$var wire 1 7" S $end
$upscope $end
$scope module h2 $end
$var wire 1 7" A $end
$var wire 1 3" B $end
$var wire 1 5" Cout $end
$var wire 1 8" S $end
$upscope $end
$upscope $end
$scope module m1 $end
$var wire 4 9" D [3:0] $end
$var wire 2 :" S [1:0] $end
$var wire 1 ;" Y $end
$scope begin genblk2 $end
$var wire 2 <" stage0_in [1:0] $end
$scope module stage0_mux $end
$var wire 2 =" D [1:0] $end
$var wire 1 >" S $end
$var wire 1 ;" Y $end
$upscope $end
$scope module stage1_mux0 $end
$var wire 2 ?" D [1:0] $end
$var wire 1 @" S $end
$var wire 1 A" Y $end
$scope begin genblk1 $end
$scope module stage0_mux $end
$var wire 2 B" D [1:0] $end
$var wire 1 @" S $end
$var wire 1 A" Y $end
$upscope $end
$upscope $end
$upscope $end
$scope module stage1_mux1 $end
$var wire 2 C" D [1:0] $end
$var wire 1 D" S $end
$var wire 1 E" Y $end
$scope begin genblk1 $end
$scope module stage0_mux $end
$var wire 2 F" D [1:0] $end
$var wire 1 D" S $end
$var wire 1 E" Y $end
$upscope $end
$upscope $end
$upscope $end
$upscope $end
$upscope $end
$upscope $end
$scope begin genblk1[3] $end
$scope module fa $end
$var wire 1 G" A $end
$var wire 1 H" B $end
$var wire 1 I" Cin $end
$var wire 1 J" Cout $end
$var wire 1 K" w3 $end
$var wire 1 L" w2 $end
$var wire 1 M" w1 $end
$var wire 1 N" S $end
$scope module h1 $end
$var wire 1 G" A $end
$var wire 1 H" B $end
$var wire 1 L" Cout $end
$var wire 1 M" S $end
$upscope $end
$scope module h2 $end
$var wire 1 M" A $end
$var wire 1 I" B $end
$var wire 1 K" Cout $end
$var wire 1 N" S $end
$upscope $end
$upscope $end
$scope module m1 $end
$var wire 4 O" D [3:0] $end
$var wire 2 P" S [1:0] $end
$var wire 1 Q" Y $end
$scope begin genblk2 $end
$var wire 2 R" stage0_in [1:0] $end
$scope module stage0_mux $end
$var wire 2 S" D [1:0] $end
$var wire 1 T" S $end
$var wire 1 Q" Y $end
$upscope $end
$scope module stage1_mux0 $end
$var wire 2 U" D [1:0] $end
$var wire 1 V" S $end
$var wire 1 W" Y $end
$scope begin genblk1 $end
$scope module stage0_mux $end
$var wire 2 X" D [1:0] $end
$var wire 1 V" S $end
$var wire 1 W" Y $end
$upscope $end
$upscope $end
$upscope $end
$scope module stage1_mux1 $end
$var wire 2 Y" D [1:0] $end
$var wire 1 Z" S $end
$var wire 1 [" Y $end
$scope begin genblk1 $end
$scope module stage0_mux $end
$var wire 2 \" D [1:0] $end
$var wire 1 Z" S $end
$var wire 1 [" Y $end
$upscope $end
$upscope $end
$upscope $end
$upscope $end
$upscope $end
$upscope $end
$upscope $end
$scope module lui $end
$var wire 4 ]" A [3:0] $end
$var wire 4 ^" B [3:0] $end
$var wire 4 _" a [3:0] $end
$var wire 4 `" n [3:0] $end
$var wire 4 a" o [3:0] $end
$var wire 2 b" opcode [1:0] $end
$var wire 4 c" x [3:0] $end
$var wire 4 d" S [3:0] $end
$scope begin genblk1[0] $end
$scope module m1 $end
$var wire 4 e" D [3:0] $end
$var wire 2 f" S [1:0] $end
$var wire 1 g" Y $end
$scope begin genblk2 $end
$var wire 2 h" stage0_in [1:0] $end
$scope module stage0_mux $end
$var wire 2 i" D [1:0] $end
$var wire 1 j" S $end
$var wire 1 g" Y $end
$upscope $end
$scope module stage1_mux0 $end
$var wire 2 k" D [1:0] $end
$var wire 1 l" S $end
$var wire 1 m" Y $end
$scope begin genblk1 $end
$scope module stage0_mux $end
$var wire 2 n" D [1:0] $end
$var wire 1 l" S $end
$var wire 1 m" Y $end
$upscope $end
$upscope $end
$upscope $end
$scope module stage1_mux1 $end
$var wire 2 o" D [1:0] $end
$var wire 1 p" S $end
$var wire 1 q" Y $end
$scope begin genblk1 $end
$scope module stage0_mux $end
$var wire 2 r" D [1:0] $end
$var wire 1 p" S $end
$var wire 1 q" Y $end
$upscope $end
$upscope $end
$upscope $end
$upscope $end
$upscope $end
$upscope $end
$scope begin genblk1[1] $end
$scope module m1 $end
$var wire 4 s" D [3:0] $end
$var wire 2 t" S [1:0] $end
$var wire 1 u" Y $end
$scope begin genblk2 $end
$var wire 2 v" stage0_in [1:0] $end
$scope module stage0_mux $end
$var wire 2 w" D [1:0] $end
$var wire 1 x" S $end
$var wire 1 u" Y $end
$upscope $end
$scope module stage1_mux0 $end
$var wire 2 y" D [1:0] $end
$var wire 1 z" S $end
$var wire 1 {" Y $end
$scope begin genblk1 $end
$scope module stage0_mux $end
$var wire 2 |" D [1:0] $end
$var wire 1 z" S $end
$var wire 1 {" Y $end
$upscope $end
$upscope $end
$upscope $end
$scope module stage1_mux1 $end
$var wire 2 }" D [1:0] $end
$var wire 1 ~" S $end
$var wire 1 !# Y $end
$scope begin genblk1 $end
$scope module stage0_mux $end
$var wire 2 "# D [1:0] $end
$var wire 1 ~" S $end
$var wire 1 !# Y $end
$upscope $end
$upscope $end
$upscope $end
$upscope $end
$upscope $end
$upscope $end
$scope begin genblk1[2] $end
$scope module m1 $end
$var wire 4 ## D [3:0] $end
$var wire 2 $# S [1:0] $end
$var wire 1 %# Y $end
$scope begin genblk2 $end
$var wire 2 &# stage0_in [1:0] $end
$scope module stage0_mux $end
$var wire 2 '# D [1:0] $end
$var wire 1 (# S $end
$var wire 1 %# Y $end
$upscope $end
$scope module stage1_mux0 $end
$var wire 2 )# D [1:0] $end
$var wire 1 *# S $end
$var wire 1 +# Y $end
$scope begin genblk1 $end
$scope module stage0_mux $end
$var wire 2 ,# D [1:0] $end
$var wire 1 *# S $end
$var wire 1 +# Y $end
$upscope $end
$upscope $end
$upscope $end
$scope module stage1_mux1 $end
$var wire 2 -# D [1:0] $end
$var wire 1 .# S $end
$var wire 1 /# Y $end
$scope begin genblk1 $end
$scope module stage0_mux $end
$var wire 2 0# D [1:0] $end
$var wire 1 .# S $end
$var wire 1 /# Y $end
$upscope $end
$upscope $end
$upscope $end
$upscope $end
$upscope $end
$upscope $end
$scope begin genblk1[3] $end
$scope module m1 $end
$var wire 4 1# D [3:0] $end
$var wire 2 2# S [1:0] $end
$var wire 1 3# Y $end
$scope begin genblk2 $end
$var wire 2 4# stage0_in [1:0] $end
$scope module stage0_mux $end
$var wire 2 5# D [1:0] $end
$var wire 1 6# S $end
$var wire 1 3# Y $end
$upscope $end
$scope module stage1_mux0 $end
$var wire 2 7# D [1:0] $end
$var wire 1 8# S $end
$var wire 1 9# Y $end
$scope begin genblk1 $end
$scope module stage0_mux $end
$var wire 2 :# D [1:0] $end
$var wire 1 8# S $end
$var wire 1 9# Y $end
$upscope $end
$upscope $end
$upscope $end
$scope module stage1_mux1 $end
$var wire 2 ;# D [1:0] $end
$var wire 1 <# S $end
$var wire 1 =# Y $end
$scope begin genblk1 $end
$scope module stage0_mux $end
$var wire 2 ># D [1:0] $end
$var wire 1 <# S $end
$var wire 1 =# Y $end
$upscope $end
$upscope $end
$upscope $end
$upscope $end
$upscope $end
$upscope $end
$upscope $end
$scope module shui $end
$var wire 4 ?# A [3:0] $end
$var wire 1 0 Cout $end
$var wire 1 @# opcode $end
$var wire 4 A# C [3:0] $end
$scope begin genblk1[1] $end
$scope module mi $end
$var wire 2 B# D [1:0] $end
$var wire 1 @# S $end
$var wire 1 C# Y $end
$scope begin genblk1 $end
$scope module stage0_mux $end
$var wire 2 D# D [1:0] $end
$var wire 1 @# S $end
$var wire 1 C# Y $end
$upscope $end
$upscope $end
$upscope $end
$upscope $end
$scope begin genblk1[2] $end
$scope module mi $end
$var wire 2 E# D [1:0] $end
$var wire 1 @# S $end
$var wire 1 F# Y $end
$scope begin genblk1 $end
$scope module stage0_mux $end
$var wire 2 G# D [1:0] $end
$var wire 1 @# S $end
$var wire 1 F# Y $end
$upscope $end
$upscope $end
$upscope $end
$upscope $end
$scope module m0 $end
$var wire 2 H# D [1:0] $end
$var wire 1 @# S $end
$var wire 1 I# Y $end
$scope begin genblk1 $end
$scope module stage0_mux $end
$var wire 2 J# D [1:0] $end
$var wire 1 @# S $end
$var wire 1 I# Y $end
$upscope $end
$upscope $end
$upscope $end
$scope module mn1 $end
$var wire 2 K# D [1:0] $end
$var wire 1 @# S $end
$var wire 1 L# Y $end
$scope begin genblk1 $end
$scope module stage0_mux $end
$var wire 2 M# D [1:0] $end
$var wire 1 @# S $end
$var wire 1 L# Y $end
$upscope $end
$upscope $end
$upscope $end
$scope module mux_carry $end
$var wire 2 N# D [1:0] $end
$var wire 1 @# S $end
$var wire 1 0 Y $end
$scope begin genblk1 $end
$scope module stage0_mux $end
$var wire 2 O# D [1:0] $end
$var wire 1 @# S $end
$var wire 1 0 Y $end
$upscope $end
$upscope $end
$upscope $end
$upscope $end
$upscope $end
$upscope $end
$enddefinitions $end
#0
$dumpvars
b0 O#
b0 N#
b10 M#
0L#
b10 K#
b0 J#
0I#
b0 H#
b0 G#
0F#
b0 E#
b1 D#
1C#
b1 B#
b10 A#
0@#
b100 ?#
b0 >#
0=#
0<#
b0 ;#
b10 :#
09#
08#
b10 7#
06#
b0 5#
b0 4#
03#
b0 2#
b1000 1#
b10 0#
0/#
0.#
b10 -#
b1 ,#
1+#
0*#
b1 )#
0(#
b10 '#
b10 &#
0%#
b0 $#
b110 ##
b0 "#
0!#
0~"
b0 }"
b10 |"
0{"
0z"
b10 y"
0x"
b0 w"
b0 v"
0u"
b0 t"
b1000 s"
b10 r"
0q"
0p"
b10 o"
b11 n"
1m"
0l"
b11 k"
0j"
b10 i"
b10 h"
0g"
b0 f"
b1110 e"
b0 d"
b101 c"
b0 b"
b101 a"
b1011 `"
b0 _"
b1 ^"
b100 ]"
b0 \"
0["
0Z"
b0 Y"
b11 X"
1W"
0V"
b11 U"
0T"
b10 S"
b10 R"
0Q"
b0 P"
b1100 O"
0N"
0M"
0L"
0K"
0J"
0I"
0H"
0G"
b0 F"
0E"
0D"
b0 C"
b11 B"
1A"
0@"
b11 ?"
0>"
b10 ="
b10 <"
0;"
b0 :"
b1100 9"
18"
17"
06"
05"
04"
03"
02"
11"
b0 0"
0/"
0."
b0 -"
b11 ,"
1+"
0*"
b11 )"
0("
b10 '"
b10 &"
0%"
b0 $"
b1100 #"
0""
0!"
0~
0}
0|
0{
0z
0y
b10 x
0w
0v
b10 u
b10 t
0s
0r
b10 q
0p
b0 o
b0 n
0m
b0 l
b1010 k
0j
0i
0h
0g
0f
0e
0d
0c
0b
b100 a
b0 `
b0 _
b0 ^
b1 ]
b100 \
b0 [
0Z
1Y
b0 X
b0 W
0V
0U
b0 T
b1 S
0R
1Q
b1 P
b1 O
1N
0M
b1 L
b10 K
1J
1I
b10 H
b0 G
0F
0E
b0 D
b0 C
0B
1A
b0 @
b0 ?
0>
0=
b0 <
b10 ;
0:
19
08
b10 7
b100 6
b0 5
b10 4
b100 3
02
b10000 1
00
0/
b1 .
b100 -
bx ,
bx +
bx *
bx )
bx (
b0 '
b1100 &
bx %
bx $
b10000 #
b1 "
b100 !
$end
#1000
b1 @
b1 C
b1 X
b1 [
b0 &"
b0 '"
b11 <
b11 ?
1>
b0 L
b0 O
0N
b1 T
b1 W
b1001 3
1V
b10 v"
b10 w"
b1 h"
b1 i"
b1 5
b1 d"
1g"
b0 &#
b0 '#
b10 4#
b10 5#
b10 )"
b10 ,"
0+"
b11 o"
b11 r"
1q"
b10 }"
b10 "#
b0 -#
b0 0#
b10 ;#
b10 >#
b11 y"
b11 |"
1{"
b0 k"
b0 n"
0m"
b10 )#
b10 ,#
0+#
b1 7#
b1 :#
19#
b0 H
b0 K
0J
b10 P
b10 S
b10 7
19
b100 ;
1R
b10 -"
b10 0"
1j
08"
b1001 6
b1001 a
1N"
1i
07"
1M"
b1110 s"
b11 e"
b1000 ##
b110 1#
b10 B#
b10 D#
0C#
b1 E#
b1 G#
b100 4
b100 A#
1F#
b0 K#
b0 M#
b10 N#
b10 O#
b1010 #"
1c
01"
1G"
b1 _"
b1011 a"
b1010 c"
b110 `"
b11 "
b11 .
b11 ]
b11 ^"
b1001 !
b1001 -
b1001 \
b1001 ]"
b1001 ?#
b1 '
b10 %
b10 $
b10 ,
b10 *
b100 (
b1 )
b10000 +
#2000
b11 P
b11 S
b11 T
b11 W
b10 &"
b10 '"
b0 <"
b0 ="
b0 R"
b0 S"
b11 L
b11 O
b1101 3
1N
b1 &#
b1 '#
1%#
b0 v"
b0 w"
b1 4#
b1 5#
b1101 5
b1101 d"
13#
b11 )"
b11 ,"
1+"
b10 ?"
b10 B"
0A"
b10 U"
b10 X"
0W"
b11 ;#
b11 >#
1=#
b0 }"
b0 "#
b11 -#
b11 0#
1/#
b10 y"
b10 |"
0{"
b0 7#
b0 :#
09#
b0 )#
b0 ,#
b10 H
b10 K
b0 7
09
b110 ;
1J
b0 -"
b0 0"
b10 C"
b10 F"
b10 Y"
b10 \"
b1101 6
b1101 a
18"
17"
b1000 s"
b11 1#
b11 ##
b11 B#
b11 D#
b110 4
b110 A#
1C#
b10 K#
b10 M#
b1100 #"
b1010 9"
b1010 O"
11"
b1101 _"
b1101 a"
b0 c"
b10 `"
b1101 "
b1101 .
b1101 ]
b1101 ^"
b1101 !
b1101 -
b1101 \
b1101 ]"
b1101 ?#
b10 '
b100 $
b100 *
b1001 (
b11 )
#3000
b0 X
b0 [
b1 <
b1 ?
b1 L
b1 O
b10 n
b10 o
b0 &"
b0 '"
b10 <"
b10 ="
b10 R"
b10 S"
b0 T
b0 W
b101 3
0V
b0 4#
b0 5#
03#
b10 h"
b10 i"
0g"
b10 v"
b10 w"
b10 &#
b10 '#
b0 5
b0 d"
0%#
b11 q
b11 t
1s
b10 )"
b10 ,"
0+"
b11 ?"
b11 B"
1A"
b11 U"
b11 X"
1W"
b10 o"
b10 r"
0q"
b10 -#
b10 0#
0/#
b10 }"
b10 "#
b0 ;#
b0 >#
0=#
b1 k"
b1 n"
1m"
b11 y"
b11 |"
1{"
b1 )#
b1 ,#
1+#
b10 7#
b10 :#
b1 P
b1 S
b10 7
19
b10 ;
0R
b0 u
b0 x
b10 -"
b10 0"
b0 C"
b0 F"
b0 Y"
b0 \"
b101 6
b101 a
0N"
0M"
b110 e"
b1110 s"
b110 ##
b1000 1#
b0 E#
b0 G#
b10 4
b10 A#
0F#
b0 N#
b0 O#
b1100 k
b1010 #"
b1100 9"
b1100 O"
0G"
b0 _"
b111 a"
b111 c"
b1010 `"
b10 "
b10 .
b10 ]
b10 ^"
b101 !
b101 -
b101 \
b101 ]"
b101 ?#
b11 '
b0 %
b110 $
b0 ,
b110 *
b1101 (
b1101 )
#4000
b0 P
b0 S
b11 <
b11 ?
b0 n
b0 o
b10 &"
b10 '"
b0 <"
b0 ="
b0 R"
b0 S"
b0 L
b0 O
b1 3
0N
b1 h"
b1 i"
b1 5
b1 d"
1g"
b0 v"
b0 w"
b10 4#
b10 5#
b10 q
b10 t
0s
b11 )"
b11 ,"
1+"
b10 ?"
b10 B"
0A"
b10 U"
b10 X"
0W"
b11 o"
b11 r"
1q"
b0 }"
b0 "#
b10 ;#
b10 >#
b0 k"
b0 n"
0m"
b10 y"
b10 |"
0{"
b11 7#
b11 :#
19#
b11 )#
b11 ,#
b0 H
b0 K
12
b100 7
09
b0 ;
0J
b10 u
b10 x
b0 -"
b0 0"
b10 C"
b10 F"
b10 Y"
b10 \"
b1 6
b1 a
08"
07"
b11 e"
b1000 s"
b1110 1#
b1110 ##
b10 B#
b10 D#
b0 4
b0 A#
0C#
b0 K#
b0 M#
b1010 k
b1100 #"
b1010 9"
b1010 O"
01"
b1 _"
b1101 a"
b1100 c"
b1110 `"
b1101 "
b1101 .
b1101 ]
b1101 ^"
b1 !
b1 -
b1 \
b1 ]"
b1 ?#
b100 '
b10 %
b10 $
b10 ,
b10 *
b101 (
b10 )
#5000
b1 P
b1 S
b0 <
b0 ?
0>
b1 D
b1 G
1F
b11 L
b11 O
b110 3
1N
b10 h"
b10 i"
0g"
b10 v"
b10 w"
b1 &#
b1 '#
b100 5
b100 d"
1%#
b10 o"
b10 r"
0q"
b11 -#
b11 0#
1/#
b10 }"
b10 "#
b11 k"
b11 n"
1m"
b1 y"
b1 |"
1{"
b0 )#
b0 ,#
0+#
b11 H
b11 K
1J
b10 @
b10 C
02
b0 7
09
b11 ;
1B
0j
1""
b110 6
b110 a
18"
0i
1!"
17"
b1110 e"
b110 s"
b11 ##
b1 B#
b1 D#
1C#
b10 E#
b10 G#
b1 H#
b1 J#
b11 4
b11 A#
1I#
b10 K#
b10 M#
0c
1y
11"
b100 _"
b1111 a"
b1011 c"
b1001 `"
b110 !
b110 -
b110 \
b110 ]"
b110 ?#
b101 '
b100 %
b0 $
b100 ,
b0 *
b1 (
b1101 )
#6000
b10 H
b10 K
b1 X
b1 [
b10 n
b10 o
b1 <
b1 ?
1>
b0 D
b0 G
0F
b11 T
b11 W
b1101 3
1V
b0 v"
b0 w"
b1 4#
b1 5#
b1100 5
b1100 d"
13#
b11 q
b11 t
1s
b11 ;#
b11 >#
1=#
b0 }"
b0 "#
b1 k"
b1 n"
b10 y"
b10 |"
0{"
b0 7#
b0 :#
09#
b11 P
b11 S
1R
b1 @
b1 C
b0 7
09
b110 ;
0B
b0 u
b0 x
1j
0""
b1101 6
b1101 a
1N"
1i
0!"
1M"
b110 e"
b1000 s"
b11 1#
b11 B#
b11 D#
b1 E#
b1 G#
1F#
b0 H#
b0 J#
b110 4
b110 A#
0I#
b10 N#
b10 O#
b1100 k
1c
0y
1G"
b1100 _"
b1101 a"
b1 c"
b10 `"
b1100 "
b1100 .
b1100 ]
b1100 ^"
b1101 !
b1101 -
b1101 \
b1101 ]"
b1101 ?#
b110 '
b0 %
b11 $
b0 ,
b11 *
b110 (
#7000
b10 P
b10 S
b1 T
b1 W
b0 &"
b0 '"
b10 R"
b10 S"
b0 L
b0 O
b1001 3
0N
b10 v"
b10 w"
b10 4#
b10 5#
03#
b10 &#
b10 '#
b0 5
b0 d"
0%#
b10 )"
b10 ,"
0+"
b11 U"
b11 X"
1W"
b10 -#
b10 0#
0/#
b10 ;#
b10 >#
0=#
b10 }"
b10 "#
b11 y"
b11 |"
1{"
b1 7#
b1 :#
19#
b11 )#
b11 ,#
1+#
b0 H
b0 K
b10 7
19
b100 ;
0J
b10 -"
b10 0"
b0 Y"
b0 \"
b1001 6
b1001 a
08"
07"
b1110 s"
b110 1#
b1110 ##
b10 B#
b10 D#
b100 4
b100 A#
0C#
b0 K#
b0 M#
b1010 #"
b1100 O"
01"
b0 _"
b1111 a"
b1111 c"
b110 `"
b110 "
b110 .
b110 ]
b110 ^"
b1001 !
b1001 -
b1001 \
b1001 ]"
b1001 ?#
b111 '
b110 $
b110 *
b1101 (
b1100 )
#8000
b0 X
b0 [
b10 <"
b10 ="
b0 R"
b0 S"
b1 L
b1 O
1N
b0 T
b0 W
b101 3
0V
b11 ?"
b11 B"
1A"
b10 U"
b10 X"
0W"
b1 )#
b1 ,#
b11 7#
b11 :#
b10 H
b10 K
1J
b1 P
b1 S
02
b10 7
19
b10 ;
0R
b0 C"
b0 F"
b10 Y"
b10 \"
18"
b101 6
b101 a
0N"
17"
0M"
b110 ##
b1110 1#
b11 B#
b11 D#
1C#
b0 E#
b0 G#
b10 4
b10 A#
0F#
b10 K#
b10 M#
b0 N#
b0 O#
b1100 9"
b1010 O"
11"
0G"
b1010 `"
b1010 "
b1010 .
b1010 ]
b1010 ^"
b101 !
b101 -
b101 \
b101 ]"
b101 ?#
b1000 '
b10 %
b100 $
b10 ,
b100 *
b1001 (
b110 )
#9000
b11 <
b11 ?
b11 L
b11 O
b0 n
b0 o
b0 <"
b0 ="
b10 R"
b10 S"
b1 h"
b1 i"
1g"
b1 &#
b1 '#
b101 5
b101 d"
1%#
b0 4#
b0 5#
b10 q
b10 t
0s
b10 ?"
b10 B"
0A"
b11 U"
b11 X"
1W"
b11 o"
b11 r"
1q"
b11 -#
b11 0#
1/#
b0 ;#
b0 >#
b0 k"
b0 n"
0m"
b0 )#
b0 ,#
0+#
b10 7#
b10 :#
09#
b10 u
b10 x
b10 C"
b10 F"
b0 Y"
b0 \"
b11 e"
b11 ##
b1000 1#
b1010 k
b1010 9"
b1100 O"
b101 _"
b111 a"
b10 c"
b111 "
b111 .
b111 ]
b111 ^"
b1001 '
b10 $
b10 *
b101 (
b1010 )
#10000
b0 P
b0 S
b0 R"
b0 S"
b0 <
b0 ?
0>
b11 D
b11 G
1F
b0 L
b0 O
b10 3
0N
b10 4#
b10 5#
b10 h"
b10 i"
0g"
b1 v"
b1 w"
1u"
b10 &#
b10 '#
b10 5
b10 d"
0%#
b10 U"
b10 X"
0W"
b10 o"
b10 r"
0q"
b11 }"
b11 "#
1!#
b10 -#
b10 0#
0/#
b10 ;#
b10 >#
b11 7#
b11 :#
19#
b11 k"
b11 n"
1m"
b0 y"
b0 |"
0{"
b11 )#
b11 ,#
1+#
b1 H
b1 K
0J
b10 @
b10 C
b10 7
19
b1 ;
1B
b10 Y"
b10 \"
0j
1""
b10 6
b10 a
08"
0i
1!"
07"
b1110 1#
b1110 e"
b11 s"
b1110 ##
b0 B#
b0 D#
0C#
b10 E#
b10 G#
b1 H#
b1 J#
b1 4
b1 A#
1I#
b0 K#
b0 M#
b1010 O"
0c
1y
01"
b10 _"
b1111 a"
b1101 c"
b1101 `"
b1111 "
b1111 .
b1111 ]
b1111 ^"
b10 !
b10 -
b10 \
b10 ]"
b10 ?#
b1010 '
b111 )
#11000
b10 n
b10 o
b0 h"
b0 i"
b11 q
b11 t
1s
b0 o"
b0 r"
b10 k"
b10 n"
0m"
b0 u
b0 x
b1000 e"
b1100 k
b1110 a"
b1100 c"
b1110 "
b1110 .
b1110 ]
b1110 ^"
b1011 '
b1 $
b1 *
b10 (
b1111 )
