testbench/ALU_components_tb.vcd
$date
	Fri Jul 23 01:49:11 2021
$end
$version
	Icarus Verilog
$end
$timescale
	1ps
$end
$scope module ALU_components_tb $end
$var reg 8 ! A [7:0] $end
$var reg 8 " B [7:0] $end
$var reg 1 # a $end
$var reg 1 $ b $end
$var reg 1 % cin $end
$var reg 1 & clk $end
$var reg 5 ' opcode [4:0] $end
$var integer 32 ( i [31:0] $end
$scope function display_tt $end
$var reg 32 ) inputs [31:0] $end
$var reg 32 * outputs [31:0] $end
$var integer 32 + range [31:0] $end
$upscope $end
$scope module aui $end
$var wire 8 , A [7:0] $end
$var wire 8 - B [7:0] $end
$var wire 3 . opcode [2:0] $end
$var wire 8 / w1 [7:0] $end
$var wire 9 0 c [8:0] $end
$var wire 8 1 S [7:0] $end
$var wire 1 2 Cout $end
$var wire 1 3 Cin $end
$scope begin genblk1[0] $end
$scope module fa $end
$var wire 1 4 A $end
$var wire 1 5 B $end
$var wire 1 6 Cin $end
$var wire 1 7 Cout $end
$var wire 1 8 w3 $end
$var wire 1 9 w2 $end
$var wire 1 : w1 $end
$var wire 1 ; S $end
$scope module h1 $end
$var wire 1 4 A $end
$var wire 1 5 B $end
$var wire 1 9 Cout $end
$var wire 1 : S $end
$upscope $end
$scope module h2 $end
$var wire 1 : A $end
$var wire 1 6 B $end
$var wire 1 8 Cout $end
$var wire 1 ; S $end
$upscope $end
$upscope $end
$scope module m1 $end
$var wire 4 < D [3:0] $end
$var wire 2 = S [1:0] $end
$var wire 1 > Y $end
$scope begin genblk2 $end
$var wire 2 ? stage0_in [1:0] $end
$scope module stage0_mux $end
$var wire 2 @ D [1:0] $end
$var wire 1 A S $end
$var wire 1 > Y $end
$upscope $end
$scope module stage1_mux0 $end
$var wire 2 B D [1:0] $end
$var wire 1 C S $end
$var wire 1 D Y $end
$scope begin genblk1 $end
$scope module stage0_mux $end
$var wire 2 E D [1:0] $end
$var wire 1 C S $end
$var wire 1 D Y $end
$upscope $end
$upscope $end
$upscope $end
$scope module stage1_mux1 $end
$var wire 2 F D [1:0] $end
$var wire 1 G S $end
$var wire 1 H Y $end
$scope begin genblk1 $end
$scope module stage0_mux $end
$var wire 2 I D [1:0] $end
$var wire 1 G S $end
$var wire 1 H Y $end
$upscope $end
$upscope $end
$upscope $end
$upscope $end
$upscope $end
$upscope $end
$scope begin genblk1[1] $end
$scope module fa $end
$var wire 1 J A $end
$var wire 1 K B $end
$var wire 1 L Cin $end
$var wire 1 M Cout $end
$var wire 1 N w3 $end
$var wire 1 O w2 $end
$var wire 1 P w1 $end
$var wire 1 Q S $end
$scope module h1 $end
$var wire 1 J A $end
$var wire 1 K B $end
$var wire 1 O Cout $end
$var wire 1 P S $end
$upscope $end
$scope module h2 $end
$var wire 1 P A $end
$var wire 1 L B $end
$var wire 1 N Cout $end
$var wire 1 Q S $end
$upscope $end
$upscope $end
$scope module m1 $end
$var wire 4 R D [3:0] $end
$var wire 2 S S [1:0] $end
$var wire 1 T Y $end
$scope begin genblk2 $end
$var wire 2 U stage0_in [1:0] $end
$scope module stage0_mux $end
$var wire 2 V D [1:0] $end
$var wire 1 W S $end
$var wire 1 T Y $end
$upscope $end
$scope module stage1_mux0 $end
$var wire 2 X D [1:0] $end
$var wire 1 Y S $end
$var wire 1 Z Y $end
$scope begin genblk1 $end
$scope module stage0_mux $end
$var wire 2 [ D [1:0] $end
$var wire 1 Y S $end
$var wire 1 Z Y $end
$upscope $end
$upscope $end
$upscope $end
$scope module stage1_mux1 $end
$var wire 2 \ D [1:0] $end
$var wire 1 ] S $end
$var wire 1 ^ Y $end
$scope begin genblk1 $end
$scope module stage0_mux $end
$var wire 2 _ D [1:0] $end
$var wire 1 ] S $end
$var wire 1 ^ Y $end
$upscope $end
$upscope $end
$upscope $end
$upscope $end
$upscope $end
$upscope $end
$scope begin genblk1[2] $end
$scope module fa $end
$var wire 1 ` A $end
$var wire 1 a B $end
$var wire 1 b Cin $end
$var wire 1 c Cout $end
$var wire 1 d w3 $end
$var wire 1 e w2 $end
$var wire 1 f w1 $end
$var wire 1 g S $end
$scope module h1 $end
$var wire 1 ` A $end
$var wire 1 a B $end
$var wire 1 e Cout $end
$var wire 1 f S $end
$upscope $end
$scope module h2 $end
$var wire 1 f A $end
$var wire 1 b B $end
$var wire 1 d Cout $end
$var wire 1 g S $end
$upscope $end
$upscope $end
$scope module m1 $end
$var wire 4 h D [3:0] $end
$var wire 2 i S [1:0] $end
$var wire 1 j Y $end
$scope begin genblk2 $end
$var wire 2 k stage0_in [1:0] $end
$scope module stage0_mux $end
$var wire 2 l D [1:0] $end
$var wire 1 m S $end
$var wire 1 j Y $end
$upscope $end
$scope module stage1_mux0 $end
$var wire 2 n D [1:0] $end
$var wire 1 o S $end
$var wire 1 p Y $end
$scope begin genblk1 $end
$scope module stage0_mux $end
$var wire 2 q D [1:0] $end
$var wire 1 o S $end
$var wire 1 p Y $end
$upscope $end
$upscope $end
$upscope $end
$scope module stage1_mux1 $end
$var wire 2 r D [1:0] $end
$var wire 1 s S $end
$var wire 1 t Y $end
$scope begin genblk1 $end
$scope module stage0_mux $end
$var wire 2 u D [1:0] $end
$var wire 1 s S $end
$var wire 1 t Y $end
$upscope $end
$upscope $end
$upscope $end
$upscope $end
$upscope $end
$upscope $end
$scope begin genblk1[3] $end
$scope module fa $end
$var wire 1 v A $end
$var wire 1 w B $end
$var wire 1 x Cin $end
$var wire 1 y Cout $end
$var wire 1 z w3 $end
$var wire 1 { w2 $end
$var wire 1 | w1 $end
$var wire 1 } S $end
$scope module h1 $end
$var wire 1 v A $end
$var wire 1 w B $end
$var wire 1 { Cout $end
$var wire 1 | S $end
$upscope $end
$scope module h2 $end
$var wire 1 | A $end
$var wire 1 x B $end
$var wire 1 z Cout $end
$var wire 1 } S $end
$upscope $end
$upscope $end
$scope module m1 $end
$var wire 4 ~ D [3:0] $end
$var wire 2 !" S [1:0] $end
$var wire 1 "" Y $end
$scope begin genblk2 $end
$var wire 2 #" stage0_in [1:0] $end
$scope module stage0_mux $end
$var wire 2 $" D [1:0] $end
$var wire 1 %" S $end
$var wire 1 "" Y $end
$upscope $end
$scope module stage1_mux0 $end
$var wire 2 &" D [1:0] $end
$var wire 1 '" S $end
$var wire 1 (" Y $end
$scope begin genblk1 $end
$scope module stage0_mux $end
$var wire 2 )" D [1:0] $end
$var wire 1 '" S $end
$var wire 1 (" Y $end
$upscope $end
$upscope $end
$upscope $end
$scope module stage1_mux1 $end
$var wire 2 *" D [1:0] $end
$var wire 1 +" S $end
$var wire 1 ," Y $end
$scope begin genblk1 $end
$scope module stage0_mux $end
$var wire 2 -" D [1:0] $end
$var wire 1 +" S $end
$var wire 1 ," Y $end
$upscope $end
$upscope $end
$upscope $end
$upscope $end
$upscope $end
$upscope $end
$scope begin genblk1[4] $end
$scope module fa $end
$var wire 1 ." A $end
$var wire 1 /" B $end
$var wire 1 0" Cin $end
$var wire 1 1" Cout $end
$var wire 1 2" w3 $end
$var wire 1 3" w2 $end
$var wire 1 4" w1 $end
$var wire 1 5" S $end
$scope module h1 $end
$var wire 1 ." A $end
$var wire 1 /" B $end
$var wire 1 3" Cout $end
$var wire 1 4" S $end
$upscope $end
$scope module h2 $end
$var wire 1 4" A $end
$var wire 1 0" B $end
$var wire 1 2" Cout $end
$var wire 1 5" S $end
$upscope $end
$upscope $end
$scope module m1 $end
$var wire 4 6" D [3:0] $end
$var wire 2 7" S [1:0] $end
$var wire 1 8" Y $end
$scope begin genblk2 $end
$var wire 2 9" stage0_in [1:0] $end
$scope module stage0_mux $end
$var wire 2 :" D [1:0] $end
$var wire 1 ;" S $end
$var wire 1 8" Y $end
$upscope $end
$scope module stage1_mux0 $end
$var wire 2 <" D [1:0] $end
$var wire 1 =" S $end
$var wire 1 >" Y $end
$scope begin genblk1 $end
$scope module stage0_mux $end
$var wire 2 ?" D [1:0] $end
$var wire 1 =" S $end
$var wire 1 >" Y $end
$upscope $end
$upscope $end
$upscope $end
$scope module stage1_mux1 $end
$var wire 2 @" D [1:0] $end
$var wire 1 A" S $end
$var wire 1 B" Y $end
$scope begin genblk1 $end
$scope module stage0_mux $end
$var wire 2 C" D [1:0] $end
$var wire 1 A" S $end
$var wire 1 B" Y $end
$upscope $end
$upscope $end
$upscope $end
$upscope $end
$upscope $end
$upscope $end
$scope begin genblk1[5] $end
$scope module fa $end
$var wire 1 D" A $end
$var wire 1 E" B $end
$var wire 1 F" Cin $end
$var wire 1 G" Cout $end
$var wire 1 H" w3 $end
$var wire 1 I" w2 $end
$var wire 1 J" w1 $end
$var wire 1 K" S $end
$scope module h1 $end
$var wire 1 D" A $end
$var wire 1 E" B $end
$var wire 1 I" Cout $end
$var wire 1 J" S $end
$upscope $end
$scope module h2 $end
$var wire 1 J" A $end
$var wire 1 F" B $end
$var wire 1 H" Cout $end
$var wire 1 K" S $end
$upscope $end
$upscope $end
$scope module m1 $end
$var wire 4 L" D [3:0] $end
$var wire 2 M" S [1:0] $end
$var wire 1 N" Y $end
$scope begin genblk2 $end
$var wire 2 O" stage0_in [1:0] $end
$scope module stage0_mux $end
$var wire 2 P" D [1:0] $end
$var wire 1 Q" S $end
$var wire 1 N" Y $end
$upscope $end
$scope module stage1_mux0 $end
$var wire 2 R" D [1:0] $end
$var wire 1 S" S $end
$var wire 1 T" Y $end
$scope begin genblk1 $end
$scope module stage0_mux $end
$var wire 2 U" D [1:0] $end
$var wire 1 S" S $end
$var wire 1 T" Y $end
$upscope $end
$upscope $end
$upscope $end
$scope module stage1_mux1 $end
$var wire 2 V" D [1:0] $end
$var wire 1 W" S $end
$var wire 1 X" Y $end
$scope begin genblk1 $end
$scope module stage0_mux $end
$var wire 2 Y" D [1:0] $end
$var wire 1 W" S $end
$var wire 1 X" Y $end
$upscope $end
$upscope $end
$upscope $end
$upscope $end
$upscope $end
$upscope $end
$scope begin genblk1[6] $end
$scope module fa $end
$var wire 1 Z" A $end
$var wire 1 [" B $end
$var wire 1 \" Cin $end
$var wire 1 ]" Cout $end
$var wire 1 ^" w3 $end
$var wire 1 _" w2 $end
$var wire 1 `" w1 $end
$var wire 1 a" S $end
$scope module h1 $end
$var wire 1 Z" A $end
$var wire 1 [" B $end
$var wire 1 _" Cout $end
$var wire 1 `" S $end
$upscope $end
$scope module h2 $end
$var wire 1 `" A $end
$var wire 1 \" B $end
$var wire 1 ^" Cout $end
$var wire 1 a" S $end
$upscope $end
$upscope $end
$scope module m1 $end
$var wire 4 b" D [3:0] $end
$var wire 2 c" S [1:0] $end
$var wire 1 d" Y $end
$scope begin genblk2 $end
$var wire 2 e" stage0_in [1:0] $end
$scope module stage0_mux $end
$var wire 2 f" D [1:0] $end
$var wire 1 g" S $end
$var wire 1 d" Y $end
$upscope $end
$scope module stage1_mux0 $end
$var wire 2 h" D [1:0] $end
$var wire 1 i" S $end
$var wire 1 j" Y $end
$scope begin genblk1 $end
$scope module stage0_mux $end
$var wire 2 k" D [1:0] $end
$var wire 1 i" S $end
$var wire 1 j" Y $end
$upscope $end
$upscope $end
$upscope $end
$scope module stage1_mux1 $end
$var wire 2 l" D [1:0] $end
$var wire 1 m" S $end
$var wire 1 n" Y $end
$scope begin genblk1 $end
$scope module stage0_mux $end
$var wire 2 o" D [1:0] $end
$var wire 1 m" S $end
$var wire 1 n" Y $end
$upscope $end
$upscope $end
$upscope $end
$upscope $end
$upscope $end
$upscope $end
$scope begin genblk1[7] $end
$scope module fa $end
$var wire 1 p" A $end
$var wire 1 q" B $end
$var wire 1 r" Cin $end
$var wire 1 s" Cout $end
$var wire 1 t" w3 $end
$var wire 1 u" w2 $end
$var wire 1 v" w1 $end
$var wire 1 w" S $end
$scope module h1 $end
$var wire 1 p" A $end
$var wire 1 q" B $end
$var wire 1 u" Cout $end
$var wire 1 v" S $end
$upscope $end
$scope module h2 $end
$var wire 1 v" A $end
$var wire 1 r" B $end
$var wire 1 t" Cout $end
$var wire 1 w" S $end
$upscope $end
$upscope $end
$scope module m1 $end
$var wire 4 x" D [3:0] $end
$var wire 2 y" S [1:0] $end
$var wire 1 z" Y $end
$scope begin genblk2 $end
$var wire 2 {" stage0_in [1:0] $end
$scope module stage0_mux $end
$var wire 2 |" D [1:0] $end
$var wire 1 }" S $end
$var wire 1 z" Y $end
$upscope $end
$scope module stage1_mux0 $end
$var wire 2 ~" D [1:0] $end
$var wire 1 !# S $end
$var wire 1 "# Y $end
$scope begin genblk1 $end
$scope module stage0_mux $end
$var wire 2 ## D [1:0] $end
$var wire 1 !# S $end
$var wire 1 "# Y $end
$upscope $end
$upscope $end
$upscope $end
$scope module stage1_mux1 $end
$var wire 2 $# D [1:0] $end
$var wire 1 %# S $end
$var wire 1 &# Y $end
$scope begin genblk1 $end
$scope module stage0_mux $end
$var wire 2 '# D [1:0] $end
$var wire 1 %# S $end
$var wire 1 &# Y $end
$upscope $end
$upscope $end
$upscope $end
$upscope $end
$upscope $end
$upscope $end
$upscope $end
$scope module fa $end
$var wire 1 # A $end
$var wire 1 $ B $end
$var wire 1 % Cin $end
$var wire 1 (# Cout $end
$var wire 1 )# w3 $end
$var wire 1 *# w2 $end
$var wire 1 +# w1 $end
$var wire 1 ,# S $end
$scope module h1 $end
$var wire 1 # A $end
$var wire 1 $ B $end
$var wire 1 *# Cout $end
$var wire 1 +# S $end
$upscope $end
$scope module h2 $end
$var wire 1 +# A $end
$var wire 1 % B $end
$var wire 1 )# Cout $end
$var wire 1 ,# S $end
$upscope $end
$upscope $end
$scope module ha $end
$var wire 1 # A $end
$var wire 1 $ B $end
$var wire 1 -# Cout $end
$var wire 1 .# S $end
$upscope $end
$scope module lui $end
$var wire 8 /# A [7:0] $end
$var wire 8 0# B [7:0] $end
$var wire 8 1# a [7:0] $end
$var wire 8 2# n [7:0] $end
$var wire 8 3# o [7:0] $end
$var wire 2 4# opcode [1:0] $end
$var wire 8 5# x [7:0] $end
$var wire 8 6# S [7:0] $end
$scope begin genblk1[0] $end
$scope module m1 $end
$var wire 4 7# D [3:0] $end
$var wire 2 8# S [1:0] $end
$var wire 1 9# Y $end
$scope begin genblk2 $end
$var wire 2 :# stage0_in [1:0] $end
$scope module stage0_mux $end
$var wire 2 ;# D [1:0] $end
$var wire 1 <# S $end
$var wire 1 9# Y $end
$upscope $end
$scope module stage1_mux0 $end
$var wire 2 =# D [1:0] $end
$var wire 1 ># S $end
$var wire 1 ?# Y $end
$scope begin genblk1 $end
$scope module stage0_mux $end
$var wire 2 @# D [1:0] $end
$var wire 1 ># S $end
$var wire 1 ?# Y $end
$upscope $end
$upscope $end
$upscope $end
$scope module stage1_mux1 $end
$var wire 2 A# D [1:0] $end
$var wire 1 B# S $end
$var wire 1 C# Y $end
$scope begin genblk1 $end
$scope module stage0_mux $end
$var wire 2 D# D [1:0] $end
$var wire 1 B# S $end
$var wire 1 C# Y $end
$upscope $end
$upscope $end
$upscope $end
$upscope $end
$upscope $end
$upscope $end
$scope begin genblk1[1] $end
$scope module m1 $end
$var wire 4 E# D [3:0] $end
$var wire 2 F# S [1:0] $end
$var wire 1 G# Y $end
$scope begin genblk2 $end
$var wire 2 H# stage0_in [1:0] $end
$scope module stage0_mux $end
$var wire 2 I# D [1:0] $end
$var wire 1 J# S $end
$var wire 1 G# Y $end
$upscope $end
$scope module stage1_mux0 $end
$var wire 2 K# D [1:0] $end
$var wire 1 L# S $end
$var wire 1 M# Y $end
$scope begin genblk1 $end
$scope module stage0_mux $end
$var wire 2 N# D [1:0] $end
$var wire 1 L# S $end
$var wire 1 M# Y $end
$upscope $end
$upscope $end
$upscope $end
$scope module stage1_mux1 $end
$var wire 2 O# D [1:0] $end
$var wire 1 P# S $end
$var wire 1 Q# Y $end
$scope begin genblk1 $end
$scope module stage0_mux $end
$var wire 2 R# D [1:0] $end
$var wire 1 P# S $end
$var wire 1 Q# Y $end
$upscope $end
$upscope $end
$upscope $end
$upscope $end
$upscope $end
$upscope $end
$scope begin genblk1[2] $end
$scope module m1 $end
$var wire 4 S# D [3:0] $end
$var wire 2 T# S [1:0] $end
$var wire 1 U# Y $end
$scope begin genblk2 $end
$var wire 2 V# stage0_in [1:0] $end
$scope module stage0_mux $end
$var wire 2 W# D [1:0] $end
$var wire 1 X# S $end
$var wire 1 U# Y $end
$upscope $end
$scope module stage1_mux0 $end
$var wire 2 Y# D [1:0] $end
$var wire 1 Z# S $end
$var wire 1 [# Y $end
$scope begin genblk1 $end
$scope module stage0_mux $end
$var wire 2 \# D [1:0] $end
$var wire 1 Z# S $end
$var wire 1 [# Y $end
$upscope $end
$upscope $end
$upscope $end
$scope module stage1_mux1 $end
$var wire 2 ]# D [1:0] $end
$var wire 1 ^# S $end
$var wire 1 _# Y $end
$scope begin genblk1 $end
$scope module stage0_mux $end
$var wire 2 `# D [1:0] $end
$var wire 1 ^# S $end
$var wire 1 _# Y $end
$upscope $end
$upscope $end
$upscope $end
$upscope $end
$upscope $end
$upscope $end
$scope begin genblk1[3] $end
$scope module m1 $end
$var wire 4 a# D [3:0] $end
$var wire 2 b# S [1:0] $end
$var wire 1 c# Y $end
$scope begin genblk2 $end
$var wire 2 d# stage0_in [1:0] $end
$scope module stage0_mux $end
$var wire 2 e# D [1:0] $end
$var wire 1 f# S $end
$var wire 1 c# Y $end
$upscope $end
$scope module stage1_mux0 $end
$var wire 2 g# D [1:0] $end
$var wire 1 h# S $end
$var wire 1 i# Y $end
$scope begin genblk1 $end
$scope module stage0_mux $end
$var wire 2 j# D [1:0] $end
$var wire 1 h# S $end
$var wire 1 i# Y $end
$upscope $end
$upscope $end
$upscope $end
$scope module stage1_mux1 $end
$var wire 2 k# D [1:0] $end
$var wire 1 l# S $end
$var wire 1 m# Y $end
$scope begin genblk1 $end
$scope module stage0_mux $end
$var wire 2 n# D [1:0] $end
$var wire 1 l# S $end
$var wire 1 m# Y $end
$upscope $end
$upscope $end
$upscope $end
$upscope $end
$upscope $end
$upscope $end
$scope begin genblk1[4] $end
$scope module m1 $end
$var wire 4 o# D [3:0] $end
$var wire 2 p# S [1:0] $end
$var wire 1 q# Y $end
$scope begin genblk2 $end
$var wire 2 r# stage0_in [1:0] $end
$scope module stage0_mux $end
$var wire 2 s# D [1:0] $end
$var wire 1 t# S $end
$var wire 1 q# Y $end
$upscope $end
$scope module stage1_mux0 $end
$var wire 2 u# D [1:0] $end
$var wire 1 v# S $end
$var wire 1 w# Y $end
$scope begin genblk1 $end
$scope module stage0_mux $end
$var wire 2 x# D [1:0] $end
$var wire 1 v# S $end
$var wire 1 w# Y $end
$upscope $end
$upscope $end
$upscope $end
$scope module stage1_mux1 $end
$var wire 2 y# D [1:0] $end
$var wire 1 z# S $end
$var wire 1 {# Y $end
$scope begin genblk1 $end
$scope module stage0_mux $end
$var wire 2 |# D [1:0] $end
$var wire 1 z# S $end
$var wire 1 {# Y $end
$upscope $end
$upscope $end
$upscope $end
$upscope $end
$upscope $end
$upscope $end
$scope begin genblk1[5] $end
$scope module m1 $end
$var wire 4 }# D [3:0] $end
$var wire 2 ~# S [1:0] $end
$var wire 1 !$ Y $end
$scope begin genblk2 $end
$var wire 2 "$ stage0_in [1:0] $end
$scope module stage0_mux $end
$var wire 2 #$ D [1:0] $end
$var wire 1 $$ S $end
$var wire 1 !$ Y $end
$upscope $end
$scope module stage1_mux0 $end
$var wire 2 %$ D [1:0] $end
$var wire 1 &$ S $end
$var wire 1 '$ Y $end
$scope begin genblk1 $end
$scope module stage0_mux $end
$var wire 2 ($ D [1:0] $end
$var wire 1 &$ S $end
$var wire 1 '$ Y $end
$upscope $end
$upscope $end
$upscope $end
$scope module stage1_mux1 $end
$var wire 2 )$ D [1:0] $end
$var wire 1 *$ S $end
$var wire 1 +$ Y $end
$scope begin genblk1 $end
$scope module stage0_mux $end
$var wire 2 ,$ D [1:0] $end
$var wire 1 *$ S $end
$var wire 1 +$ Y $end
$upscope $end
$upscope $end
$upscope $end
$upscope $end
$upscope $end
$upscope $end
$scope begin genblk1[6] $end
$scope module m1 $end
$var wire 4 -$ D [3:0] $end
$var wire 2 .$ S [1:0] $end
$var wire 1 /$ Y $end
$scope begin genblk2 $end
$var wire 2 0$ stage0_in [1:0] $end
$scope module stage0_mux $end
$var wire 2 1$ D [1:0] $end
$var wire 1 2$ S $end
$var wire 1 /$ Y $end
$upscope $end
$scope module stage1_mux0 $end
$var wire 2 3$ D [1:0] $end
$var wire 1 4$ S $end
$var wire 1 5$ Y $end
$scope begin genblk1 $end
$scope module stage0_mux $end
$var wire 2 6$ D [1:0] $end
$var wire 1 4$ S $end
$var wire 1 5$ Y $end
$upscope $end
$upscope $end
$upscope $end
$scope module stage1_mux1 $end
$var wire 2 7$ D [1:0] $end
$var wire 1 8$ S $end
$var wire 1 9$ Y $end
$scope begin genblk1 $end
$scope module stage0_mux $end
$var wire 2 :$ D [1:0] $end
$var wire 1 8$ S $end
$var wire 1 9$ Y $end
$upscope $end
$upscope $end
$upscope $end
$upscope $end
$upscope $end
$upscope $end
$scope begin genblk1[7] $end
$scope module m1 $end
$var wire 4 ;$ D [3:0] $end
$var wire 2 <$ S [1:0] $end
$var wire 1 =$ Y $end
$scope begin genblk2 $end
$var wire 2 >$ stage0_in [1:0] $end
$scope module stage0_mux $end
$var wire 2 ?$ D [1:0] $end
$var wire 1 @$ S $end
$var wire 1 =$ Y $end
$upscope $end
$scope module stage1_mux0 $end
$var wire 2 A$ D [1:0] $end
$var wire 1 B$ S $end
$var wire 1 C$ Y $end
$scope begin genblk1 $end
$scope module stage0_mux $end
$var wire 2 D$ D [1:0] $end
$var wire 1 B$ S $end
$var wire 1 C$ Y $end
$upscope $end
$upscope $end
$upscope $end
$scope module stage1_mux1 $end
$var wire 2 E$ D [1:0] $end
$var wire 1 F$ S $end
$var wire 1 G$ Y $end
$scope begin genblk1 $end
$scope module stage0_mux $end
$var wire 2 H$ D [1:0] $end
$var wire 1 F$ S $end
$var wire 1 G$ Y $end
$upscope $end
$upscope $end
$upscope $end
$upscope $end
$upscope $end
$upscope $end
$upscope $end
$scope module shui $end
$var wire 8 I$ A [7:0] $end
$var wire 1 J$ opcode $end
$var wire 8 K$ C [7:0] $end
$scope begin genblk1[1] $end
$scope module mi $end
$var wire 2 L$ D [1:0] $end
$var wire 1 J$ S $end
$var wire 1 M$ Y $end
$scope begin genblk1 $end
$scope module stage0_mux $end
$var wire 2 N$ D [1:0] $end
$var wire 1 J$ S $end
$var wire 1 M$ Y $end
$upscope $end
$upscope $end
$upscope $end
$upscope $end
$scope begin genblk1[2] $end
$scope module mi $end
$var wire 2 O$ D [1:0] $end
$var wire 1 J$ S $end
$var wire 1 P$ Y $end
$scope begin genblk1 $end
$scope module stage0_mux $end
$var wire 2 Q$ D [1:0] $end
$var wire 1 J$ S $end
$var wire 1 P$ Y $end
$upscope $end
$upscope $end
$upscope $end
$upscope $end
$scope begin genblk1[3] $end
$scope module mi $end
$var wire 2 R$ D [1:0] $end
$var wire 1 J$ S $end
$var wire 1 S$ Y $end
$scope begin genblk1 $end
$scope module stage0_mux $end
$var wire 2 T$ D [1:0] $end
$var wire 1 J$ S $end
$var wire 1 S$ Y $end
$upscope $end
$upscope $end
$upscope $end
$upscope $end
$scope begin genblk1[4] $end
$scope module mi $end
$var wire 2 U$ D [1:0] $end
$var wire 1 J$ S $end
$var wire 1 V$ Y $end
$scope begin genblk1 $end
$scope module stage0_mux $end
$var wire 2 W$ D [1:0] $end
$var wire 1 J$ S $end
$var wire 1 V$ Y $end
$upscope $end
$upscope $end
$upscope $end
$upscope $end
$scope begin genblk1[5] $end
$scope module mi $end
$var wire 2 X$ D [1:0] $end
$var wire 1 J$ S $end
$var wire 1 Y$ Y $end
$scope begin genblk1 $end
$scope module stage0_mux $end
$var wire 2 Z$ D [1:0] $end
$var wire 1 J$ S $end
$var wire 1 Y$ Y $end
$upscope $end
$upscope $end
$upscope $end
$upscope $end
$scope begin genblk1[6] $end
$scope module mi $end
$var wire 2 [$ D [1:0] $end
$var wire 1 J$ S $end
$var wire 1 \$ Y $end
$scope begin genblk1 $end
$scope module stage0_mux $end
$var wire 2 ]$ D [1:0] $end
$var wire 1 J$ S $end
$var wire 1 \$ Y $end
$upscope $end
$upscope $end
$upscope $end
$upscope $end
$scope module m0 $end
$var wire 2 ^$ D [1:0] $end
$var wire 1 J$ S $end
$var wire 1 _$ Y $end
$scope begin genblk1 $end
$scope module stage0_mux $end
$var wire 2 `$ D [1:0] $end
$var wire 1 J$ S $end
$var wire 1 _$ Y $end
$upscope $end
$upscope $end
$upscope $end
$scope module mn1 $end
$var wire 2 a$ D [1:0] $end
$var wire 1 J$ S $end
$var wire 1 b$ Y $end
$scope begin genblk1 $end
$scope module stage0_mux $end
$var wire 2 c$ D [1:0] $end
$var wire 1 J$ S $end
$var wire 1 b$ Y $end
$upscope $end
$upscope $end
$upscope $end
$upscope $end
$upscope $end
$enddefinitions $end
#0
$dumpvars
bx c$
xb$
bx a$
bx `$
x_$
bx ^$
bx ]$
x\$
bx [$
bx Z$
xY$
bx X$
bx W$
xV$
bx U$
bx T$
xS$
bx R$
bx Q$
xP$
bx O$
bx N$
xM$
bx L$
bx K$
xJ$
bx I$
bx H$
xG$
xF$
bx E$
bx D$
xC$
xB$
bx A$
x@$
bx ?$
bx >$
x=$
bx <$
bx ;$
bx :$
x9$
x8$
bx 7$
bx 6$
x5$
x4$
bx 3$
x2$
bx 1$
bx 0$
x/$
bx .$
bx -$
bx ,$
x+$
x*$
bx )$
bx ($
x'$
x&$
bx %$
x$$
bx #$
bx "$
x!$
bx ~#
bx }#
bx |#
x{#
xz#
bx y#
bx x#
xw#
xv#
bx u#
xt#
bx s#
bx r#
xq#
bx p#
bx o#
bx n#
xm#
xl#
bx k#
bx j#
xi#
xh#
bx g#
xf#
bx e#
bx d#
xc#
bx b#
bx a#
bx `#
x_#
x^#
bx ]#
bx \#
x[#
xZ#
bx Y#
xX#
bx W#
bx V#
xU#
bx T#
bx S#
bx R#
xQ#
xP#
bx O#
bx N#
xM#
xL#
bx K#
xJ#
bx I#
bx H#
xG#
bx F#
bx E#
bx D#
xC#
xB#
bx A#
bx @#
x?#
x>#
bx =#
x<#
bx ;#
bx :#
x9#
bx 8#
bx 7#
bx 6#
bx 5#
bx 4#
bx 3#
bx 2#
bx 1#
bx 0#
bx /#
0.#
0-#
0,#
0+#
0*#
0)#
0(#
bx '#
x&#
x%#
bx $#
bx ##
x"#
x!#
bx ~"
x}"
bx |"
bx {"
xz"
bx y"
b1xx0 x"
xw"
xv"
xu"
xt"
xs"
xr"
xq"
xp"
bx o"
xn"
xm"
bx l"
bx k"
xj"
xi"
bx h"
xg"
bx f"
bx e"
xd"
bx c"
b1xx0 b"
xa"
x`"
x_"
x^"
x]"
x\"
x["
xZ"
bx Y"
xX"
xW"
bx V"
bx U"
xT"
xS"
bx R"
xQ"
bx P"
bx O"
xN"
bx M"
b1xx0 L"
xK"
xJ"
xI"
xH"
xG"
xF"
xE"
xD"
bx C"
xB"
xA"
bx @"
bx ?"
x>"
x="
bx <"
x;"
bx :"
bx 9"
x8"
bx 7"
b1xx0 6"
x5"
x4"
x3"
x2"
x1"
x0"
x/"
x."
bx -"
x,"
x+"
bx *"
bx )"
x("
x'"
bx &"
x%"
bx $"
bx #"
x""
bx !"
b1xx0 ~
x}
x|
x{
xz
xy
xx
xw
xv
bx u
xt
xs
bx r
bx q
xp
xo
bx n
xm
bx l
bx k
xj
bx i
b1xx0 h
xg
xf
xe
xd
xc
xb
xa
x`
bx _
x^
x]
bx \
bx [
xZ
xY
bx X
xW
bx V
bx U
xT
bx S
b1xx0 R
xQ
xP
xO
xN
xM
xL
xK
xJ
bx I
xH
xG
bx F
bx E
xD
xC
bx B
xA
bx @
bx ?
x>
bx =
b1xx0 <
x;
x:
x9
x8
x7
x6
x5
x4
x3
x2
bx 1
bx 0
bx /
bx .
bx -
bx ,
bx +
bx *
bx )
b0 (
bx '
x&
0%
0$
0#
bx "
bx !
$end
#10000
1,#
1%
b1 (
#20000
1+#
1.#
1,#
1$
0%
b10 (
#30000
1(#
1)#
0,#
1%
b11 (
#40000
0(#
0)#
1,#
1#
0$
0%
b100 (
#50000
1(#
1)#
0,#
1%
b101 (
#60000
1*#
0+#
1-#
0.#
0)#
0,#
1$
0%
b110 (
#70000
1,#
1%
b111 (
#80000
0(#
0*#
0-#
0,#
0#
0$
0%
b1000 (
#90000
1,#
1%
b1001 (
