testbench/counter_tb.vcd
$date
	Tue Jul 27 22:14:43 2021
$end
$version
	Icarus Verilog
$end
$timescale
	1ps
$end
$scope module counter_tb $end
$var wire 8 ! data_bus [7:0] $end
$var reg 1 " CNT_EN $end
$var reg 1 # CS $end
$var reg 1 $ LD $end
$var reg 1 % OE $end
$var reg 1 & clk $end
$var reg 8 ' data [7:0] $end
$var reg 8 ( rdata [7:0] $end
$var reg 1 ) reset $end
$var integer 32 * i [31:0] $end
$scope module counter1 $end
$var wire 1 " CNT_EN $end
$var wire 1 # CS $end
$var wire 1 $ LD $end
$var wire 1 % OE $end
$var wire 1 & clk $end
$var wire 8 + data [7:0] $end
$var wire 8 , q [7:0] $end
$var wire 1 ) reset $end
$var wire 8 - k [7:0] $end
$var wire 8 . j [7:0] $end
$var wire 8 / d1 [7:0] $end
$var wire 9 0 cnt_en [8:0] $end
$var wire 1 1 carry $end
$scope begin genblk1[0] $end
$scope module jkff_0 $end
$var wire 1 2 J $end
$var wire 1 3 K $end
$var wire 1 4 a $end
$var wire 1 5 b $end
$var wire 1 6 c $end
$var wire 1 & clk $end
$var wire 1 ) reset $end
$var wire 1 7 Q_bar $end
$var wire 1 8 Q $end
$scope module dff $end
$var wire 1 6 D $end
$var wire 1 8 Q $end
$var wire 1 7 Q_bar $end
$var wire 1 9 a $end
$var wire 1 : b $end
$var wire 1 ; c $end
$var wire 1 & clk $end
$var wire 1 < d $end
$var wire 1 = e $end
$var wire 1 > f $end
$var wire 1 ? g $end
$var wire 1 @ h $end
$var wire 1 A q_bar $end
$var wire 1 ) reset $end
$upscope $end
$upscope $end
$scope module l1 $end
$var wire 1 B A $end
$var wire 1 C B $end
$var wire 1 D D $end
$var wire 1 E EN $end
$var wire 1 F Q $end
$var wire 1 G Q_bar $end
$upscope $end
$scope module mux_0 $end
$var wire 2 H D [1:0] $end
$var wire 1 $ S $end
$var wire 1 I Y $end
$scope begin genblk1 $end
$scope module stage0_mux $end
$var wire 2 J D [1:0] $end
$var wire 1 $ S $end
$var wire 1 I Y $end
$upscope $end
$upscope $end
$upscope $end
$scope module mux_1 $end
$var wire 2 K D [1:0] $end
$var wire 1 $ S $end
$var wire 1 L Y $end
$scope begin genblk1 $end
$scope module stage0_mux $end
$var wire 2 M D [1:0] $end
$var wire 1 $ S $end
$var wire 1 L Y $end
$upscope $end
$upscope $end
$upscope $end
$upscope $end
$scope begin genblk1[1] $end
$scope module jkff_0 $end
$var wire 1 N J $end
$var wire 1 O K $end
$var wire 1 P a $end
$var wire 1 Q b $end
$var wire 1 R c $end
$var wire 1 & clk $end
$var wire 1 ) reset $end
$var wire 1 S Q_bar $end
$var wire 1 T Q $end
$scope module dff $end
$var wire 1 R D $end
$var wire 1 T Q $end
$var wire 1 S Q_bar $end
$var wire 1 U a $end
$var wire 1 V b $end
$var wire 1 W c $end
$var wire 1 & clk $end
$var wire 1 X d $end
$var wire 1 Y e $end
$var wire 1 Z f $end
$var wire 1 [ g $end
$var wire 1 \ h $end
$var wire 1 ] q_bar $end
$var wire 1 ) reset $end
$upscope $end
$upscope $end
$scope module l1 $end
$var wire 1 ^ A $end
$var wire 1 _ B $end
$var wire 1 ` D $end
$var wire 1 a EN $end
$var wire 1 b Q $end
$var wire 1 c Q_bar $end
$upscope $end
$scope module mux_0 $end
$var wire 2 d D [1:0] $end
$var wire 1 $ S $end
$var wire 1 e Y $end
$scope begin genblk1 $end
$scope module stage0_mux $end
$var wire 2 f D [1:0] $end
$var wire 1 $ S $end
$var wire 1 e Y $end
$upscope $end
$upscope $end
$upscope $end
$scope module mux_1 $end
$var wire 2 g D [1:0] $end
$var wire 1 $ S $end
$var wire 1 h Y $end
$scope begin genblk1 $end
$scope module stage0_mux $end
$var wire 2 i D [1:0] $end
$var wire 1 $ S $end
$var wire 1 h Y $end
$upscope $end
$upscope $end
$upscope $end
$upscope $end
$scope begin genblk1[2] $end
$scope module jkff_0 $end
$var wire 1 j J $end
$var wire 1 k K $end
$var wire 1 l a $end
$var wire 1 m b $end
$var wire 1 n c $end
$var wire 1 & clk $end
$var wire 1 ) reset $end
$var wire 1 o Q_bar $end
$var wire 1 p Q $end
$scope module dff $end
$var wire 1 n D $end
$var wire 1 p Q $end
$var wire 1 o Q_bar $end
$var wire 1 q a $end
$var wire 1 r b $end
$var wire 1 s c $end
$var wire 1 & clk $end
$var wire 1 t d $end
$var wire 1 u e $end
$var wire 1 v f $end
$var wire 1 w g $end
$var wire 1 x h $end
$var wire 1 y q_bar $end
$var wire 1 ) reset $end
$upscope $end
$upscope $end
$scope module l1 $end
$var wire 1 z A $end
$var wire 1 { B $end
$var wire 1 | D $end
$var wire 1 } EN $end
$var wire 1 ~ Q $end
$var wire 1 !" Q_bar $end
$upscope $end
$scope module mux_0 $end
$var wire 2 "" D [1:0] $end
$var wire 1 $ S $end
$var wire 1 #" Y $end
$scope begin genblk1 $end
$scope module stage0_mux $end
$var wire 2 $" D [1:0] $end
$var wire 1 $ S $end
$var wire 1 #" Y $end
$upscope $end
$upscope $end
$upscope $end
$scope module mux_1 $end
$var wire 2 %" D [1:0] $end
$var wire 1 $ S $end
$var wire 1 &" Y $end
$scope begin genblk1 $end
$scope module stage0_mux $end
$var wire 2 '" D [1:0] $end
$var wire 1 $ S $end
$var wire 1 &" Y $end
$upscope $end
$upscope $end
$upscope $end
$upscope $end
$scope begin genblk1[3] $end
$scope module jkff_0 $end
$var wire 1 (" J $end
$var wire 1 )" K $end
$var wire 1 *" a $end
$var wire 1 +" b $end
$var wire 1 ," c $end
$var wire 1 & clk $end
$var wire 1 ) reset $end
$var wire 1 -" Q_bar $end
$var wire 1 ." Q $end
$scope module dff $end
$var wire 1 ," D $end
$var wire 1 ." Q $end
$var wire 1 -" Q_bar $end
$var wire 1 /" a $end
$var wire 1 0" b $end
$var wire 1 1" c $end
$var wire 1 & clk $end
$var wire 1 2" d $end
$var wire 1 3" e $end
$var wire 1 4" f $end
$var wire 1 5" g $end
$var wire 1 6" h $end
$var wire 1 7" q_bar $end
$var wire 1 ) reset $end
$upscope $end
$upscope $end
$scope module l1 $end
$var wire 1 8" A $end
$var wire 1 9" B $end
$var wire 1 :" D $end
$var wire 1 ;" EN $end
$var wire 1 <" Q $end
$var wire 1 =" Q_bar $end
$upscope $end
$scope module mux_0 $end
$var wire 2 >" D [1:0] $end
$var wire 1 $ S $end
$var wire 1 ?" Y $end
$scope begin genblk1 $end
$scope module stage0_mux $end
$var wire 2 @" D [1:0] $end
$var wire 1 $ S $end
$var wire 1 ?" Y $end
$upscope $end
$upscope $end
$upscope $end
$scope module mux_1 $end
$var wire 2 A" D [1:0] $end
$var wire 1 $ S $end
$var wire 1 B" Y $end
$scope begin genblk1 $end
$scope module stage0_mux $end
$var wire 2 C" D [1:0] $end
$var wire 1 $ S $end
$var wire 1 B" Y $end
$upscope $end
$upscope $end
$upscope $end
$upscope $end
$scope begin genblk1[4] $end
$scope module jkff_0 $end
$var wire 1 D" J $end
$var wire 1 E" K $end
$var wire 1 F" a $end
$var wire 1 G" b $end
$var wire 1 H" c $end
$var wire 1 & clk $end
$var wire 1 ) reset $end
$var wire 1 I" Q_bar $end
$var wire 1 J" Q $end
$scope module dff $end
$var wire 1 H" D $end
$var wire 1 J" Q $end
$var wire 1 I" Q_bar $end
$var wire 1 K" a $end
$var wire 1 L" b $end
$var wire 1 M" c $end
$var wire 1 & clk $end
$var wire 1 N" d $end
$var wire 1 O" e $end
$var wire 1 P" f $end
$var wire 1 Q" g $end
$var wire 1 R" h $end
$var wire 1 S" q_bar $end
$var wire 1 ) reset $end
$upscope $end
$upscope $end
$scope module l1 $end
$var wire 1 T" A $end
$var wire 1 U" B $end
$var wire 1 V" D $end
$var wire 1 W" EN $end
$var wire 1 X" Q $end
$var wire 1 Y" Q_bar $end
$upscope $end
$scope module mux_0 $end
$var wire 2 Z" D [1:0] $end
$var wire 1 $ S $end
$var wire 1 [" Y $end
$scope begin genblk1 $end
$scope module stage0_mux $end
$var wire 2 \" D [1:0] $end
$var wire 1 $ S $end
$var wire 1 [" Y $end
$upscope $end
$upscope $end
$upscope $end
$scope module mux_1 $end
$var wire 2 ]" D [1:0] $end
$var wire 1 $ S $end
$var wire 1 ^" Y $end
$scope begin genblk1 $end
$scope module stage0_mux $end
$var wire 2 _" D [1:0] $end
$var wire 1 $ S $end
$var wire 1 ^" Y $end
$upscope $end
$upscope $end
$upscope $end
$upscope $end
$scope begin genblk1[5] $end
$scope module jkff_0 $end
$var wire 1 `" J $end
$var wire 1 a" K $end
$var wire 1 b" a $end
$var wire 1 c" b $end
$var wire 1 d" c $end
$var wire 1 & clk $end
$var wire 1 ) reset $end
$var wire 1 e" Q_bar $end
$var wire 1 f" Q $end
$scope module dff $end
$var wire 1 d" D $end
$var wire 1 f" Q $end
$var wire 1 e" Q_bar $end
$var wire 1 g" a $end
$var wire 1 h" b $end
$var wire 1 i" c $end
$var wire 1 & clk $end
$var wire 1 j" d $end
$var wire 1 k" e $end
$var wire 1 l" f $end
$var wire 1 m" g $end
$var wire 1 n" h $end
$var wire 1 o" q_bar $end
$var wire 1 ) reset $end
$upscope $end
$upscope $end
$scope module l1 $end
$var wire 1 p" A $end
$var wire 1 q" B $end
$var wire 1 r" D $end
$var wire 1 s" EN $end
$var wire 1 t" Q $end
$var wire 1 u" Q_bar $end
$upscope $end
$scope module mux_0 $end
$var wire 2 v" D [1:0] $end
$var wire 1 $ S $end
$var wire 1 w" Y $end
$scope begin genblk1 $end
$scope module stage0_mux $end
$var wire 2 x" D [1:0] $end
$var wire 1 $ S $end
$var wire 1 w" Y $end
$upscope $end
$upscope $end
$upscope $end
$scope module mux_1 $end
$var wire 2 y" D [1:0] $end
$var wire 1 $ S $end
$var wire 1 z" Y $end
$scope begin genblk1 $end
$scope module stage0_mux $end
$var wire 2 {" D [1:0] $end
$var wire 1 $ S $end
$var wire 1 z" Y $end
$upscope $end
$upscope $end
$upscope $end
$upscope $end
$scope begin genblk1[6] $end
$scope module jkff_0 $end
$var wire 1 |" J $end
$var wire 1 }" K $end
$var wire 1 ~" a $end
$var wire 1 !# b $end
$var wire 1 "# c $end
$var wire 1 & clk $end
$var wire 1 ) reset $end
$var wire 1 ## Q_bar $end
$var wire 1 $# Q $end
$scope module dff $end
$var wire 1 "# D $end
$var wire 1 $# Q $end
$var wire 1 ## Q_bar $end
$var wire 1 %# a $end
$var wire 1 &# b $end
$var wire 1 '# c $end
$var wire 1 & clk $end
$var wire 1 (# d $end
$var wire 1 )# e $end
$var wire 1 *# f $end
$var wire 1 +# g $end
$var wire 1 ,# h $end
$var wire 1 -# q_bar $end
$var wire 1 ) reset $end
$upscope $end
$upscope $end
$scope module l1 $end
$var wire 1 .# A $end
$var wire 1 /# B $end
$var wire 1 0# D $end
$var wire 1 1# EN $end
$var wire 1 2# Q $end
$var wire 1 3# Q_bar $end
$upscope $end
$scope module mux_0 $end
$var wire 2 4# D [1:0] $end
$var wire 1 $ S $end
$var wire 1 5# Y $end
$scope begin genblk1 $end
$scope module stage0_mux $end
$var wire 2 6# D [1:0] $end
$var wire 1 $ S $end
$var wire 1 5# Y $end
$upscope $end
$upscope $end
$upscope $end
$scope module mux_1 $end
$var wire 2 7# D [1:0] $end
$var wire 1 $ S $end
$var wire 1 8# Y $end
$scope begin genblk1 $end
$scope module stage0_mux $end
$var wire 2 9# D [1:0] $end
$var wire 1 $ S $end
$var wire 1 8# Y $end
$upscope $end
$upscope $end
$upscope $end
$upscope $end
$scope begin genblk1[7] $end
$scope module jkff_0 $end
$var wire 1 :# J $end
$var wire 1 ;# K $end
$var wire 1 <# a $end
$var wire 1 =# b $end
$var wire 1 ># c $end
$var wire 1 & clk $end
$var wire 1 ) reset $end
$var wire 1 ?# Q_bar $end
$var wire 1 @# Q $end
$scope module dff $end
$var wire 1 ># D $end
$var wire 1 @# Q $end
$var wire 1 ?# Q_bar $end
$var wire 1 A# a $end
$var wire 1 B# b $end
$var wire 1 C# c $end
$var wire 1 & clk $end
$var wire 1 D# d $end
$var wire 1 E# e $end
$var wire 1 F# f $end
$var wire 1 G# g $end
$var wire 1 H# h $end
$var wire 1 I# q_bar $end
$var wire 1 ) reset $end
$upscope $end
$upscope $end
$scope module l1 $end
$var wire 1 J# A $end
$var wire 1 K# B $end
$var wire 1 L# D $end
$var wire 1 M# EN $end
$var wire 1 N# Q $end
$var wire 1 O# Q_bar $end
$upscope $end
$scope module mux_0 $end
$var wire 2 P# D [1:0] $end
$var wire 1 $ S $end
$var wire 1 Q# Y $end
$scope begin genblk1 $end
$scope module stage0_mux $end
$var wire 2 R# D [1:0] $end
$var wire 1 $ S $end
$var wire 1 Q# Y $end
$upscope $end
$upscope $end
$upscope $end
$scope module mux_1 $end
$var wire 2 S# D [1:0] $end
$var wire 1 $ S $end
$var wire 1 T# Y $end
$scope begin genblk1 $end
$scope module stage0_mux $end
$var wire 2 U# D [1:0] $end
$var wire 1 $ S $end
$var wire 1 T# Y $end
$upscope $end
$upscope $end
$upscope $end
$upscope $end
$upscope $end
$scope task do_read $end
$upscope $end
$scope task do_write $end
$var reg 8 V# wdata [7:0] $end
$upscope $end
$upscope $end
$enddefinitions $end
#0
$dumpvars
bx V#
bx0 U#
0T#
bx0 S#
bx0 R#
0Q#
bx0 P#
xO#
xN#
0M#
zL#
1K#
1J#
1I#
0H#
1G#
0F#
0E#
0D#
1C#
1B#
0A#
0@#
1?#
0>#
0=#
0<#
0;#
0:#
bx0 9#
08#
bx0 7#
bx0 6#
05#
bx0 4#
x3#
x2#
01#
z0#
1/#
1.#
1-#
0,#
1+#
0*#
0)#
0(#
1'#
1&#
0%#
0$#
1##
0"#
0!#
0~"
0}"
0|"
bx0 {"
0z"
bx0 y"
bx0 x"
0w"
bx0 v"
xu"
xt"
0s"
zr"
1q"
1p"
1o"
0n"
1m"
0l"
0k"
0j"
1i"
1h"
0g"
0f"
1e"
0d"
0c"
0b"
0a"
0`"
bx0 _"
0^"
bx0 ]"
bx0 \"
0["
bx0 Z"
xY"
xX"
0W"
zV"
1U"
1T"
1S"
0R"
1Q"
0P"
0O"
0N"
1M"
1L"
0K"
0J"
1I"
0H"
0G"
0F"
0E"
0D"
bx0 C"
0B"
bx0 A"
bx0 @"
0?"
bx0 >"
x="
x<"
0;"
z:"
19"
18"
17"
06"
15"
04"
03"
02"
11"
10"
0/"
0."
1-"
0,"
0+"
0*"
0)"
0("
bx0 '"
0&"
bx0 %"
bx0 $"
0#"
bx0 ""
x!"
x~
0}
z|
1{
1z
1y
0x
1w
0v
0u
0t
1s
1r
0q
0p
1o
0n
0m
0l
0k
0j
bx0 i
0h
bx0 g
bx0 f
0e
bx0 d
xc
xb
0a
z`
1_
1^
1]
0\
1[
0Z
0Y
0X
1W
1V
0U
0T
1S
0R
0Q
0P
0O
0N
bx0 M
0L
bx0 K
bx0 J
0I
bx0 H
xG
xF
0E
zD
1C
1B
1A
0@
1?
0>
0=
0<
1;
1:
09
08
17
06
05
04
03
02
01
b0 0
bx /
b0 .
b0 -
b0 ,
bz +
bx *
0)
b0 (
bz '
0&
0%
0$
0#
0"
bz !
$end
#5000
0:
0V
0r
00"
0L"
0h"
0&#
0B#
1=
1Y
1u
13"
1O"
1k"
1)#
1E#
1)
1&
#10000
1:
0?
1V
0[
1r
0w
10"
05"
1L"
0Q"
1h"
0m"
1&#
0+#
1B#
0G#
0=
0Y
0u
03"
0O"
0k"
0)#
0E#
0&
#15000
0:
1?
0V
1[
0r
1w
00"
15"
0L"
1Q"
0h"
1m"
0&#
1+#
0B#
1G#
1=
1Y
1u
13"
1O"
1k"
1)#
1E#
1&
#20000
1:
0?
1V
0[
1r
0w
10"
05"
1L"
0Q"
1h"
0m"
1&#
0+#
1B#
0G#
0=
0Y
0u
03"
0O"
0k"
0)#
0E#
0&
#25000
0:
1?
0V
1[
0r
1w
00"
15"
0L"
1Q"
0h"
1m"
0&#
1+#
0B#
1G#
1=
1Y
1u
13"
1O"
1k"
1)#
1E#
1&
#30000
1:
0?
1V
0[
1r
0w
10"
05"
1L"
0Q"
1h"
0m"
1&#
0+#
1B#
0G#
0=
0Y
0u
03"
0O"
0k"
0)#
0E#
0&
#35000
0:
1?
0V
1[
0r
1w
00"
15"
0L"
1Q"
0h"
1m"
0&#
1+#
0B#
1G#
1=
1Y
1u
13"
1O"
1k"
1)#
1E#
1&
#40000
b10 7#
b10 9#
b0 4#
b0 6#
b0 K
b0 M
b0 g
b0 i
b0 %"
b0 '"
b0 A"
b0 C"
b0 ]"
b0 _"
b0 y"
b0 {"
b0 S#
b0 U#
1<
1X
1t
12"
1N"
1j"
0(#
1D#
02#
b10 H
b10 J
b10 d
b10 f
b10 ""
b10 $"
b10 >"
b10 @"
b10 Z"
b10 \"
b10 v"
b10 x"
b10 P#
b10 R#
0;
0W
0s
01"
0M"
0i"
1'#
0C#
0G
0c
0!"
0="
0Y"
0u"
13#
0O#
19
1U
1q
1/"
1K"
1g"
0%#
1A#
1F
1b
1~
1<"
1X"
1t"
b10111111 /
1N#
16
1R
1n
1,"
1H"
1d"
0"#
1>#
14
1P
1l
1*"
1F"
1b"
0~"
1<#
1D
1`
1|
1:"
1V"
1r"
00#
1L#
12
03
1N
0O
1j
0k
1("
0)"
1D"
0E"
1`"
0a"
0|"
1}"
1:#
0;#
0B
1C
0^
1_
0z
1{
08"
19"
0T"
1U"
0p"
1q"
1.#
0/#
0J#
1K#
b10111111 !
b10111111 +
1I
0L
1e
0h
1#"
0&"
1?"
0B"
1["
0^"
1w"
0z"
05#
18#
b10111111 .
1Q#
b1000000 -
0T#
1E
1a
1}
1;"
1W"
1s"
11#
1M#
b10111111 '
1$
1#
0:
0?
0V
0[
0r
0w
00"
05"
0L"
0Q"
0h"
0m"
1&#
0+#
0B#
0G#
0=
0Y
0u
03"
0O"
0k"
0)#
0E#
0&
b10111111 V#
#45000
zD
z`
z|
z:"
zV"
zr"
z0#
zL#
02
0N
0j
0("
0D"
0`"
0}"
0:#
1B
1^
1z
18"
1T"
1p"
1/#
1J#
bz !
bz +
0I
0e
0#"
0?"
0["
0w"
b0 -
08#
b0 .
0Q#
0E
0a
0}
0;"
0W"
0s"
01#
0M#
bz '
0$
0#
15
16
1Q
1R
1m
1n
1+"
1,"
1G"
1H"
1c"
1d"
1=#
b10111111 ,
1>#
18
04
1T
0P
1p
0l
1."
0*"
1J"
0F"
1f"
0b"
1@#
0<#
07
0A
0S
0]
0o
0y
0-"
07"
0I"
0S"
0e"
0o"
0?#
0I#
09
1@
0U
1\
0q
1x
0/"
16"
0K"
1R"
0g"
1n"
0&#
1+#
0A#
1H#
1>
1Z
1v
14"
1P"
1l"
1)#
1F#
1&
#50000
19
0@
1U
0\
1q
0x
1/"
06"
1K"
0R"
1g"
0n"
1&#
0+#
1A#
0H#
0>
0Z
0v
04"
0P"
0l"
0)#
0F#
0&
#55000
09
1@
0U
1\
0q
1x
0/"
16"
0K"
1R"
0g"
1n"
0&#
1+#
0A#
1H#
1>
1Z
1v
14"
1P"
1l"
1)#
1F#
1&
#60000
1W
1M"
1<
0X
1t
12"
0N"
1j"
1D#
0:
1V
0r
00"
1L"
0h"
0B#
0(#
16
0R
1n
1,"
0H"
1d"
1>#
1'#
15
0Q
1m
1+"
0G"
1c"
1=#
0%#
0"#
03
1O
0k
0)"
1E"
0a"
0;#
0~"
b0 K
b0 M
0L
b10 g
b10 i
1h
b0 %"
b0 '"
0&"
b0 A"
b0 C"
0B"
b10 ]"
b10 _"
1^"
b0 y"
b0 {"
0z"
b10 7#
b10 9#
b0 S#
b0 U#
0T#
0|"
b10 H
b10 J
b0 d
b0 f
b10 ""
b10 $"
b10 >"
b10 @"
b0 Z"
b0 \"
b10 v"
b10 x"
b0 4#
b0 6#
05#
b10 P#
b10 R#
13#
1F
0G
0b
1c
1~
0!"
1<"
0="
0X"
1Y"
1t"
0u"
02#
b10101101 /
1N#
0O#
1D
0`
1|
1:"
0V"
1r"
00#
1L#
12
0N
1j
1("
0D"
1`"
1}"
1:#
0B
1C
1^
0_
0z
1{
08"
19"
1T"
0U"
0p"
1q"
1.#
0/#
0J#
1K#
b10101101 !
b10101101 +
1I
0e
1#"
1?"
0["
1w"
b1010010 -
18#
b10101101 .
1Q#
1E
1a
1}
1;"
1W"
1s"
11#
1M#
b10101101 '
1$
1#
19
0@
0U
0\
1q
0x
1/"
06"
0K"
0R"
1g"
0n"
1&#
0+#
1A#
0H#
0>
0Z
0v
04"
0P"
0l"
0)#
0F#
0&
b10101101 V#
#65000
zD
z`
z|
z:"
zV"
zr"
z0#
zL#
02
0O
0j
0("
0E"
0`"
0}"
0:#
1B
1_
1z
18"
1U"
1p"
1/#
1J#
bz !
bz +
0I
0h
0#"
0?"
0^"
0w"
b0 -
08#
b0 .
0Q#
0E
0a
0}
0;"
0W"
0s"
01#
0M#
bz '
0$
0#
1S
1]
1I"
1S"
b10101101 ,
0T
0J"
09
1@
0V
1[
0q
1x
0/"
16"
0L"
1Q"
0g"
1n"
0&#
1+#
0A#
1H#
1>
1Y
1v
14"
1O"
1l"
1)#
1F#
1&
#70000
19
0@
1V
0[
1q
0x
1/"
06"
1L"
0Q"
1g"
0n"
1&#
0+#
1A#
0H#
0>
0Y
0v
04"
0O"
0l"
0)#
0F#
0&
#75000
bz (
0%
0#
09
1@
0V
1[
0q
1x
0/"
16"
0L"
1Q"
0g"
1n"
0&#
1+#
0A#
1H#
1>
1Y
1v
14"
1O"
1l"
1)#
1F#
1&
#80000
1D
0`
1|
1:"
0V"
1r"
00#
1L#
b10101101 !
b10101101 +
1%
1#
19
0@
1V
0[
1q
0x
1/"
06"
1L"
0Q"
1g"
0n"
1&#
0+#
1A#
0H#
0>
0Y
0v
04"
0O"
0l"
0)#
0F#
0&
#85000
zD
z`
z|
z:"
zV"
zr"
z0#
zL#
bz !
bz +
0#
0%
b10101101 (
09
1@
0V
1[
0q
1x
0/"
16"
0L"
1Q"
0g"
1n"
0&#
1+#
0A#
1H#
1>
1Y
1v
14"
1O"
1l"
1)#
1F#
1&
#90000
19
0@
1V
0[
1q
0x
1/"
06"
1L"
0Q"
1g"
0n"
1&#
0+#
1A#
0H#
0>
0Y
0v
04"
0O"
0l"
0)#
0F#
0&
#95000
09
1@
0V
1[
0q
1x
0/"
16"
0L"
1Q"
0g"
1n"
0&#
1+#
0A#
1H#
1>
1Y
1v
14"
1O"
1l"
1)#
1F#
1&
#100000
1<
1t
12"
1j"
1D#
0:
0r
00"
0h"
0B#
1X
1N"
1(#
16
1n
1,"
1d"
1>#
0W
0M"
0'#
15
1m
1+"
1c"
1=#
1U
1K"
1%#
1R
1H"
1"#
03
0k
0)"
0a"
0;#
1P
1F"
1~"
b0 K
b0 M
0L
b0 g
b0 i
b0 %"
b0 '"
0&"
b0 A"
b0 C"
0B"
b0 ]"
b0 _"
b0 y"
b0 {"
0z"
b0 7#
b0 9#
b0 S#
b0 U#
0T#
1N
1D"
1|"
b10 H
b10 J
b10 d
b10 f
1e
b10 ""
b10 $"
b10 >"
b10 @"
b10 Z"
b10 \"
1["
b10 v"
b10 x"
b10 4#
b10 6#
15#
b10 P#
b10 R#
0c
0Y"
03#
1F
0G
1b
1~
0!"
1<"
0="
1X"
1t"
0u"
12#
b11111111 /
1N#
0O#
1D
1`
1|
1:"
1V"
1r"
10#
1L#
12
0O
1j
1("
0E"
1`"
0}"
1:#
0B
1C
0^
1_
0z
1{
08"
19"
0T"
1U"
0p"
1q"
0.#
1/#
0J#
1K#
b11111111 !
b11111111 +
1I
0h
1#"
1?"
0^"
1w"
b0 -
08#
b11111111 .
1Q#
1E
1a
1}
1;"
1W"
1s"
11#
1M#
b11111111 '
1$
1#
19
0@
0V
0[
1q
0x
1/"
06"
0L"
0Q"
1g"
0n"
0&#
0+#
1A#
0H#
0>
0Y
0v
04"
0O"
0l"
0)#
0F#
0&
b11111111 V#
#105000
02
0N
0j
0("
0D"
0`"
0|"
0:#
1B
1^
1z
18"
1T"
1p"
1.#
1J#
0I
0e
0#"
0?"
0["
0w"
05#
b0 .
0Q#
0E
0a
0}
0;"
0W"
0s"
01#
0M#
1%
bz '
0$
1#
1Q
1R
1G"
1H"
1!#
b11111111 ,
1"#
1T
0P
1J"
0F"
1$#
0~"
0S
0]
0I"
0S"
0##
0-#
09
1@
0U
1\
0q
1x
0/"
16"
0K"
1R"
0g"
1n"
0%#
1,#
0A#
1H#
1>
1Z
1v
14"
1P"
1l"
1*#
1F#
1&
#110000
19
0@
1U
0\
1q
0x
1/"
06"
1K"
0R"
1g"
0n"
1%#
0,#
1A#
0H#
0>
0Z
0v
04"
0P"
0l"
0*#
0F#
0&
#115000
zD
z`
z|
z:"
zV"
zr"
z0#
zL#
bz !
bz +
0#
0%
b11111111 (
09
1@
0U
1\
0q
1x
0/"
16"
0K"
1R"
0g"
1n"
0%#
1,#
0A#
1H#
1>
1Z
1v
14"
1P"
1l"
1*#
1F#
1&
#120000
19
0@
1U
0\
1q
0x
1/"
06"
1K"
0R"
1g"
0n"
1%#
0,#
1A#
0H#
0>
0Z
0v
04"
0P"
0l"
0*#
0F#
0&
#125000
09
1@
0U
1\
0q
1x
0/"
16"
0K"
1R"
0g"
1n"
0%#
1,#
0A#
1H#
1>
1Z
1v
14"
1P"
1l"
1*#
1F#
1&
#130000
11"
1M"
1C#
1<
1X
1t
02"
0N"
1j"
1(#
0D#
0:
0V
0r
10"
1L"
0h"
0&#
1B#
16
1R
1n
0,"
0H"
1d"
1"#
0>#
15
1Q
1m
0+"
0G"
1c"
1!#
0=#
03
0O
0k
1)"
1E"
0a"
0}"
1;#
b0 K
b0 M
0L
b0 g
b0 i
0h
b0 %"
b0 '"
0&"
b10 A"
b10 C"
1B"
b10 ]"
b10 _"
1^"
b0 y"
b0 {"
0z"
b0 7#
b0 9#
08#
b10 S#
b10 U#
b10011000 -
1T#
b10 H
b10 J
b10 d
b10 f
b10 ""
b10 $"
b0 >"
b0 @"
b0 Z"
b0 \"
b10 v"
b10 x"
b10 4#
b10 6#
b0 P#
b0 R#
1F
0G
1b
0c
1~
0!"
0<"
1="
0X"
1Y"
1t"
0u"
12#
03#
b1100111 /
0N#
1O#
1D
1`
1|
0:"
0V"
1r"
10#
0L#
12
1N
1j
0("
0D"
1`"
1|"
0:#
0B
1C
0^
1_
0z
1{
18"
09"
1T"
0U"
0p"
1q"
0.#
1/#
1J#
0K#
b1100111 !
b1100111 +
1I
1e
1#"
0?"
0["
1w"
15#
b1100111 .
0Q#
1E
1a
1}
1;"
1W"
1s"
11#
1M#
b1100111 '
1$
1#
19
0@
1U
0\
1q
0x
0/"
06"
0K"
0R"
1g"
0n"
1%#
0,#
0A#
0H#
0>
0Z
0v
04"
0P"
0l"
0*#
0F#
0&
b1100111 V#
#135000
02
0N
0j
0)"
0E"
0`"
0|"
0;#
1B
1^
1z
19"
1U"
1p"
1.#
1K#
0I
0e
0#"
0B"
0^"
0w"
b0 .
05#
b0 -
0T#
0E
0a
0}
0;"
0W"
0s"
01#
0M#
1%
bz '
0$
1#
1-"
17"
1I"
1S"
1?#
1I#
b1100111 ,
0."
0J"
0@#
09
1@
0U
1\
0q
1x
00"
15"
0L"
1Q"
0g"
1n"
0%#
1,#
0B#
1G#
1>
1Z
1v
13"
1O"
1l"
1*#
1E#
1&
#140000
19
0@
1U
0\
1q
0x
10"
05"
1L"
0Q"
1g"
0n"
1%#
0,#
1B#
0G#
0>
0Z
0v
03"
0O"
0l"
0*#
0E#
0&
#145000
zD
z`
z|
z:"
zV"
zr"
z0#
zL#
bz !
bz +
0#
0%
b1100111 (
09
1@
0U
1\
0q
1x
00"
15"
0L"
1Q"
0g"
1n"
0%#
1,#
0B#
1G#
1>
1Z
1v
13"
1O"
1l"
1*#
1E#
1&
#150000
19
0@
1U
0\
1q
0x
10"
05"
1L"
0Q"
1g"
0n"
1%#
0,#
1B#
0G#
0>
0Z
0v
03"
0O"
0l"
0*#
0E#
0&
#155000
09
1@
0U
1\
0q
1x
00"
15"
0L"
1Q"
0g"
1n"
0%#
1,#
0B#
1G#
1>
1Z
1v
13"
1O"
1l"
1*#
1E#
1&
#160000
19
0@
1U
0\
1q
0x
10"
05"
1L"
0Q"
1g"
0n"
1%#
0,#
1B#
0G#
0>
0Z
0v
03"
0O"
0l"
0*#
0E#
0&
#165000
1,"
1*"
0n
1("
1)"
0m
b1 >"
b1 @"
1?"
b11 A"
b11 C"
1B"
0R
1j
1k
0Q
b11 ""
b11 $"
1#"
b1 %"
b1 '"
1&"
06
1N
1O
05
b11 d
b11 f
1e
b1 g
b1 i
1h
1D
1`
1|
0:"
0V"
1r"
10#
0L#
12
13
09
1@
0U
1\
0q
1x
00"
15"
0L"
1Q"
0g"
1n"
0%#
1,#
0B#
1G#
b1100111 !
b1100111 +
b11 H
b11 J
b1111 .
1I
b1 K
b1 M
b1111 -
1L
1>
1Z
1v
13"
1O"
1l"
1*#
1E#
1&
b0 *
1%
1#
b1111 0
1"
#170000
1;
1W
1s
12"
0<
0X
0t
01"
1:
0@
1V
0\
1r
0x
1/"
05"
1L"
0Q"
1g"
0n"
1%#
0,#
1B#
0G#
0>
0Z
0v
03"
0O"
0l"
0*#
0E#
0&
