testbench/register_tb.vcd
$date
	Thu Aug 12 16:33:24 2021
$end
$version
	Icarus Verilog
$end
$timescale
	1ps
$end
$scope module register_tb $end
$var wire 8 ! data_bus [7:0] $end
$var reg 1 " CS $end
$var reg 1 # OE $end
$var reg 1 $ WE $end
$var reg 1 % clk $end
$var reg 8 & data [7:0] $end
$var reg 8 ' rdata [7:0] $end
$var reg 1 ( reset $end
$scope module reg1 $end
$var wire 1 ) CNT_EN $end
$var wire 1 " CS $end
$var wire 1 # OE $end
$var wire 8 * Q [7:0] $end
$var wire 1 $ WE $end
$var wire 1 % clk $end
$var wire 8 + data [7:0] $end
$var wire 1 ( reset $end
$var wire 9 , cnt_en [8:0] $end
$var wire 1 - carry $end
$var wire 8 . K [7:0] $end
$var wire 8 / J [7:0] $end
$var wire 8 0 D [7:0] $end
$scope begin genblk1[0] $end
$scope module jk_ff0 $end
$var wire 1 1 J $end
$var wire 1 2 K $end
$var wire 1 3 a $end
$var wire 1 4 b $end
$var wire 1 5 c $end
$var wire 1 % clk $end
$var wire 1 ( reset $end
$var wire 1 6 Q_bar $end
$var wire 1 7 Q $end
$scope module dff $end
$var wire 1 5 D $end
$var wire 1 7 Q $end
$var wire 1 6 Q_bar $end
$var wire 1 8 a $end
$var wire 1 9 b $end
$var wire 1 : c $end
$var wire 1 % clk $end
$var wire 1 ; d $end
$var wire 1 < e $end
$var wire 1 = f $end
$var wire 1 > g $end
$var wire 1 ? h $end
$var wire 1 @ q_bar $end
$var wire 1 ( reset $end
$upscope $end
$upscope $end
$scope module latch0 $end
$var wire 1 A A $end
$var wire 1 B B $end
$var wire 1 C D $end
$var wire 1 D EN $end
$var wire 1 E Q $end
$var wire 1 F q_bar $end
$upscope $end
$scope module mux0 $end
$var wire 2 G D [1:0] $end
$var wire 1 $ S $end
$var wire 1 H Y $end
$scope begin genblk1 $end
$scope module stage0_mux $end
$var wire 2 I D [1:0] $end
$var wire 1 $ S $end
$var wire 1 H Y $end
$upscope $end
$upscope $end
$upscope $end
$scope module mux1 $end
$var wire 2 J D [1:0] $end
$var wire 1 $ S $end
$var wire 1 K Y $end
$scope begin genblk1 $end
$scope module stage0_mux $end
$var wire 2 L D [1:0] $end
$var wire 1 $ S $end
$var wire 1 K Y $end
$upscope $end
$upscope $end
$upscope $end
$upscope $end
$scope begin genblk1[1] $end
$scope module jk_ff0 $end
$var wire 1 M J $end
$var wire 1 N K $end
$var wire 1 O a $end
$var wire 1 P b $end
$var wire 1 Q c $end
$var wire 1 % clk $end
$var wire 1 ( reset $end
$var wire 1 R Q_bar $end
$var wire 1 S Q $end
$scope module dff $end
$var wire 1 Q D $end
$var wire 1 S Q $end
$var wire 1 R Q_bar $end
$var wire 1 T a $end
$var wire 1 U b $end
$var wire 1 V c $end
$var wire 1 % clk $end
$var wire 1 W d $end
$var wire 1 X e $end
$var wire 1 Y f $end
$var wire 1 Z g $end
$var wire 1 [ h $end
$var wire 1 \ q_bar $end
$var wire 1 ( reset $end
$upscope $end
$upscope $end
$scope module latch0 $end
$var wire 1 ] A $end
$var wire 1 ^ B $end
$var wire 1 _ D $end
$var wire 1 ` EN $end
$var wire 1 a Q $end
$var wire 1 b q_bar $end
$upscope $end
$scope module mux0 $end
$var wire 2 c D [1:0] $end
$var wire 1 $ S $end
$var wire 1 d Y $end
$scope begin genblk1 $end
$scope module stage0_mux $end
$var wire 2 e D [1:0] $end
$var wire 1 $ S $end
$var wire 1 d Y $end
$upscope $end
$upscope $end
$upscope $end
$scope module mux1 $end
$var wire 2 f D [1:0] $end
$var wire 1 $ S $end
$var wire 1 g Y $end
$scope begin genblk1 $end
$scope module stage0_mux $end
$var wire 2 h D [1:0] $end
$var wire 1 $ S $end
$var wire 1 g Y $end
$upscope $end
$upscope $end
$upscope $end
$upscope $end
$scope begin genblk1[2] $end
$scope module jk_ff0 $end
$var wire 1 i J $end
$var wire 1 j K $end
$var wire 1 k a $end
$var wire 1 l b $end
$var wire 1 m c $end
$var wire 1 % clk $end
$var wire 1 ( reset $end
$var wire 1 n Q_bar $end
$var wire 1 o Q $end
$scope module dff $end
$var wire 1 m D $end
$var wire 1 o Q $end
$var wire 1 n Q_bar $end
$var wire 1 p a $end
$var wire 1 q b $end
$var wire 1 r c $end
$var wire 1 % clk $end
$var wire 1 s d $end
$var wire 1 t e $end
$var wire 1 u f $end
$var wire 1 v g $end
$var wire 1 w h $end
$var wire 1 x q_bar $end
$var wire 1 ( reset $end
$upscope $end
$upscope $end
$scope module latch0 $end
$var wire 1 y A $end
$var wire 1 z B $end
$var wire 1 { D $end
$var wire 1 | EN $end
$var wire 1 } Q $end
$var wire 1 ~ q_bar $end
$upscope $end
$scope module mux0 $end
$var wire 2 !" D [1:0] $end
$var wire 1 $ S $end
$var wire 1 "" Y $end
$scope begin genblk1 $end
$scope module stage0_mux $end
$var wire 2 #" D [1:0] $end
$var wire 1 $ S $end
$var wire 1 "" Y $end
$upscope $end
$upscope $end
$upscope $end
$scope module mux1 $end
$var wire 2 $" D [1:0] $end
$var wire 1 $ S $end
$var wire 1 %" Y $end
$scope begin genblk1 $end
$scope module stage0_mux $end
$var wire 2 &" D [1:0] $end
$var wire 1 $ S $end
$var wire 1 %" Y $end
$upscope $end
$upscope $end
$upscope $end
$upscope $end
$scope begin genblk1[3] $end
$scope module jk_ff0 $end
$var wire 1 '" J $end
$var wire 1 (" K $end
$var wire 1 )" a $end
$var wire 1 *" b $end
$var wire 1 +" c $end
$var wire 1 % clk $end
$var wire 1 ( reset $end
$var wire 1 ," Q_bar $end
$var wire 1 -" Q $end
$scope module dff $end
$var wire 1 +" D $end
$var wire 1 -" Q $end
$var wire 1 ," Q_bar $end
$var wire 1 ." a $end
$var wire 1 /" b $end
$var wire 1 0" c $end
$var wire 1 % clk $end
$var wire 1 1" d $end
$var wire 1 2" e $end
$var wire 1 3" f $end
$var wire 1 4" g $end
$var wire 1 5" h $end
$var wire 1 6" q_bar $end
$var wire 1 ( reset $end
$upscope $end
$upscope $end
$scope module latch0 $end
$var wire 1 7" A $end
$var wire 1 8" B $end
$var wire 1 9" D $end
$var wire 1 :" EN $end
$var wire 1 ;" Q $end
$var wire 1 <" q_bar $end
$upscope $end
$scope module mux0 $end
$var wire 2 =" D [1:0] $end
$var wire 1 $ S $end
$var wire 1 >" Y $end
$scope begin genblk1 $end
$scope module stage0_mux $end
$var wire 2 ?" D [1:0] $end
$var wire 1 $ S $end
$var wire 1 >" Y $end
$upscope $end
$upscope $end
$upscope $end
$scope module mux1 $end
$var wire 2 @" D [1:0] $end
$var wire 1 $ S $end
$var wire 1 A" Y $end
$scope begin genblk1 $end
$scope module stage0_mux $end
$var wire 2 B" D [1:0] $end
$var wire 1 $ S $end
$var wire 1 A" Y $end
$upscope $end
$upscope $end
$upscope $end
$upscope $end
$scope begin genblk1[4] $end
$scope module jk_ff0 $end
$var wire 1 C" J $end
$var wire 1 D" K $end
$var wire 1 E" a $end
$var wire 1 F" b $end
$var wire 1 G" c $end
$var wire 1 % clk $end
$var wire 1 ( reset $end
$var wire 1 H" Q_bar $end
$var wire 1 I" Q $end
$scope module dff $end
$var wire 1 G" D $end
$var wire 1 I" Q $end
$var wire 1 H" Q_bar $end
$var wire 1 J" a $end
$var wire 1 K" b $end
$var wire 1 L" c $end
$var wire 1 % clk $end
$var wire 1 M" d $end
$var wire 1 N" e $end
$var wire 1 O" f $end
$var wire 1 P" g $end
$var wire 1 Q" h $end
$var wire 1 R" q_bar $end
$var wire 1 ( reset $end
$upscope $end
$upscope $end
$scope module latch0 $end
$var wire 1 S" A $end
$var wire 1 T" B $end
$var wire 1 U" D $end
$var wire 1 V" EN $end
$var wire 1 W" Q $end
$var wire 1 X" q_bar $end
$upscope $end
$scope module mux0 $end
$var wire 2 Y" D [1:0] $end
$var wire 1 $ S $end
$var wire 1 Z" Y $end
$scope begin genblk1 $end
$scope module stage0_mux $end
$var wire 2 [" D [1:0] $end
$var wire 1 $ S $end
$var wire 1 Z" Y $end
$upscope $end
$upscope $end
$upscope $end
$scope module mux1 $end
$var wire 2 \" D [1:0] $end
$var wire 1 $ S $end
$var wire 1 ]" Y $end
$scope begin genblk1 $end
$scope module stage0_mux $end
$var wire 2 ^" D [1:0] $end
$var wire 1 $ S $end
$var wire 1 ]" Y $end
$upscope $end
$upscope $end
$upscope $end
$upscope $end
$scope begin genblk1[5] $end
$scope module jk_ff0 $end
$var wire 1 _" J $end
$var wire 1 `" K $end
$var wire 1 a" a $end
$var wire 1 b" b $end
$var wire 1 c" c $end
$var wire 1 % clk $end
$var wire 1 ( reset $end
$var wire 1 d" Q_bar $end
$var wire 1 e" Q $end
$scope module dff $end
$var wire 1 c" D $end
$var wire 1 e" Q $end
$var wire 1 d" Q_bar $end
$var wire 1 f" a $end
$var wire 1 g" b $end
$var wire 1 h" c $end
$var wire 1 % clk $end
$var wire 1 i" d $end
$var wire 1 j" e $end
$var wire 1 k" f $end
$var wire 1 l" g $end
$var wire 1 m" h $end
$var wire 1 n" q_bar $end
$var wire 1 ( reset $end
$upscope $end
$upscope $end
$scope module latch0 $end
$var wire 1 o" A $end
$var wire 1 p" B $end
$var wire 1 q" D $end
$var wire 1 r" EN $end
$var wire 1 s" Q $end
$var wire 1 t" q_bar $end
$upscope $end
$scope module mux0 $end
$var wire 2 u" D [1:0] $end
$var wire 1 $ S $end
$var wire 1 v" Y $end
$scope begin genblk1 $end
$scope module stage0_mux $end
$var wire 2 w" D [1:0] $end
$var wire 1 $ S $end
$var wire 1 v" Y $end
$upscope $end
$upscope $end
$upscope $end
$scope module mux1 $end
$var wire 2 x" D [1:0] $end
$var wire 1 $ S $end
$var wire 1 y" Y $end
$scope begin genblk1 $end
$scope module stage0_mux $end
$var wire 2 z" D [1:0] $end
$var wire 1 $ S $end
$var wire 1 y" Y $end
$upscope $end
$upscope $end
$upscope $end
$upscope $end
$scope begin genblk1[6] $end
$scope module jk_ff0 $end
$var wire 1 {" J $end
$var wire 1 |" K $end
$var wire 1 }" a $end
$var wire 1 ~" b $end
$var wire 1 !# c $end
$var wire 1 % clk $end
$var wire 1 ( reset $end
$var wire 1 "# Q_bar $end
$var wire 1 ## Q $end
$scope module dff $end
$var wire 1 !# D $end
$var wire 1 ## Q $end
$var wire 1 "# Q_bar $end
$var wire 1 $# a $end
$var wire 1 %# b $end
$var wire 1 &# c $end
$var wire 1 % clk $end
$var wire 1 '# d $end
$var wire 1 (# e $end
$var wire 1 )# f $end
$var wire 1 *# g $end
$var wire 1 +# h $end
$var wire 1 ,# q_bar $end
$var wire 1 ( reset $end
$upscope $end
$upscope $end
$scope module latch0 $end
$var wire 1 -# A $end
$var wire 1 .# B $end
$var wire 1 /# D $end
$var wire 1 0# EN $end
$var wire 1 1# Q $end
$var wire 1 2# q_bar $end
$upscope $end
$scope module mux0 $end
$var wire 2 3# D [1:0] $end
$var wire 1 $ S $end
$var wire 1 4# Y $end
$scope begin genblk1 $end
$scope module stage0_mux $end
$var wire 2 5# D [1:0] $end
$var wire 1 $ S $end
$var wire 1 4# Y $end
$upscope $end
$upscope $end
$upscope $end
$scope module mux1 $end
$var wire 2 6# D [1:0] $end
$var wire 1 $ S $end
$var wire 1 7# Y $end
$scope begin genblk1 $end
$scope module stage0_mux $end
$var wire 2 8# D [1:0] $end
$var wire 1 $ S $end
$var wire 1 7# Y $end
$upscope $end
$upscope $end
$upscope $end
$upscope $end
$scope begin genblk1[7] $end
$scope module jk_ff0 $end
$var wire 1 9# J $end
$var wire 1 :# K $end
$var wire 1 ;# a $end
$var wire 1 <# b $end
$var wire 1 =# c $end
$var wire 1 % clk $end
$var wire 1 ( reset $end
$var wire 1 ># Q_bar $end
$var wire 1 ?# Q $end
$scope module dff $end
$var wire 1 =# D $end
$var wire 1 ?# Q $end
$var wire 1 ># Q_bar $end
$var wire 1 @# a $end
$var wire 1 A# b $end
$var wire 1 B# c $end
$var wire 1 % clk $end
$var wire 1 C# d $end
$var wire 1 D# e $end
$var wire 1 E# f $end
$var wire 1 F# g $end
$var wire 1 G# h $end
$var wire 1 H# q_bar $end
$var wire 1 ( reset $end
$upscope $end
$upscope $end
$scope module latch0 $end
$var wire 1 I# A $end
$var wire 1 J# B $end
$var wire 1 K# D $end
$var wire 1 L# EN $end
$var wire 1 M# Q $end
$var wire 1 N# q_bar $end
$upscope $end
$scope module mux0 $end
$var wire 2 O# D [1:0] $end
$var wire 1 $ S $end
$var wire 1 P# Y $end
$scope begin genblk1 $end
$scope module stage0_mux $end
$var wire 2 Q# D [1:0] $end
$var wire 1 $ S $end
$var wire 1 P# Y $end
$upscope $end
$upscope $end
$upscope $end
$scope module mux1 $end
$var wire 2 R# D [1:0] $end
$var wire 1 $ S $end
$var wire 1 S# Y $end
$scope begin genblk1 $end
$scope module stage0_mux $end
$var wire 2 T# D [1:0] $end
$var wire 1 $ S $end
$var wire 1 S# Y $end
$upscope $end
$upscope $end
$upscope $end
$upscope $end
$upscope $end
$scope task do_read $end
$upscope $end
$scope task do_write $end
$var reg 8 U# wdata [7:0] $end
$upscope $end
$upscope $end
$enddefinitions $end
#0
$dumpvars
bx U#
bx0 T#
0S#
bx0 R#
bx0 Q#
0P#
bx0 O#
xN#
xM#
0L#
xK#
1J#
1I#
1H#
0G#
1F#
0E#
0D#
0C#
1B#
1A#
0@#
0?#
1>#
0=#
0<#
0;#
0:#
09#
bx0 8#
07#
bx0 6#
bx0 5#
04#
bx0 3#
x2#
x1#
00#
x/#
1.#
1-#
1,#
0+#
1*#
0)#
0(#
0'#
1&#
1%#
0$#
0##
1"#
0!#
0~"
0}"
0|"
0{"
bx0 z"
0y"
bx0 x"
bx0 w"
0v"
bx0 u"
xt"
xs"
0r"
xq"
1p"
1o"
1n"
0m"
1l"
0k"
0j"
0i"
1h"
1g"
0f"
0e"
1d"
0c"
0b"
0a"
0`"
0_"
bx0 ^"
0]"
bx0 \"
bx0 ["
0Z"
bx0 Y"
xX"
xW"
0V"
xU"
1T"
1S"
1R"
0Q"
1P"
0O"
0N"
0M"
1L"
1K"
0J"
0I"
1H"
0G"
0F"
0E"
0D"
0C"
bx0 B"
0A"
bx0 @"
bx0 ?"
0>"
bx0 ="
x<"
x;"
0:"
x9"
18"
17"
16"
05"
14"
03"
02"
01"
10"
1/"
0."
0-"
1,"
0+"
0*"
0)"
0("
0'"
bx0 &"
0%"
bx0 $"
bx0 #"
0""
bx0 !"
x~
x}
0|
x{
1z
1y
1x
0w
1v
0u
0t
0s
1r
1q
0p
0o
1n
0m
0l
0k
0j
0i
bx0 h
0g
bx0 f
bx0 e
0d
bx0 c
xb
xa
0`
x_
1^
1]
1\
0[
1Z
0Y
0X
0W
1V
1U
0T
0S
1R
0Q
0P
0O
0N
0M
bx1 L
1K
bx1 J
bx1 I
1H
bx1 G
xF
xE
0D
xC
1B
1A
1@
0?
1>
0=
0<
1;
0:
09
18
07
16
15
04
13
12
11
bx 0
b1 /
b1 .
0-
b1 ,
bx +
b0 *
1)
0(
bx '
bx &
0%
0$
0#
0"
bx !
$end
#5000
08
0U
0q
0/"
0K"
0g"
0%#
0A#
1=
1X
1t
12"
1N"
1j"
1(#
1D#
1%
#10000
1W
0V
1T
1Q
1O
1M
1N
bx1 c
bx1 e
b11 /
1d
bx1 f
bx1 h
b11 .
1g
1:
0;
b11 ,
19
b1 *
05
17
03
08
0U
1q
1/"
1K"
1g"
1%#
1A#
0>
06
0@
0Z
0v
04"
0P"
0l"
0*#
0F#
0=
0X
0t
02"
0N"
0j"
0(#
0D#
0?
0%
1(
#15000
1P
0m
0k
0M
0N
0i
0j
bx0 c
bx0 e
0d
bx0 f
bx0 h
0g
bx0 !"
bx0 #"
b1 /
0""
bx0 $"
bx0 &"
b1 .
0%"
15
b1 ,
13
1Q
16
1@
b10 *
1S
0O
07
0R
0\
09
1>
0T
1[
0q
1v
0/"
14"
0K"
1P"
0g"
1l"
0%#
1*#
0A#
1F#
1<
1Y
1t
12"
1N"
1j"
1(#
1D#
1%
#20000
1;
0:
18
0>
1T
0[
1q
0v
1/"
04"
1K"
0P"
1g"
0l"
1%#
0*#
1A#
0F#
0<
0Y
0t
02"
0N"
0j"
0(#
0D#
0%
#25000
1m
1k
0Q
1i
1j
0P
bx1 !"
bx1 #"
1""
bx1 $"
bx1 &"
1%"
1M
1N
bx1 c
bx1 e
b111 /
1d
bx1 f
bx1 h
b111 .
1g
b111 ,
b11 *
05
17
03
06
0@
08
1?
0T
1[
0q
1v
0/"
14"
0K"
1P"
0g"
1l"
0%#
1*#
0A#
1F#
1=
1Y
1t
12"
1N"
1j"
1(#
1D#
1%
#30000
1:
1V
1s
0;
0W
0r
19
0?
1U
0[
1p
0v
1/"
04"
1K"
0P"
1g"
0l"
1%#
0*#
1A#
0F#
0=
0Y
0t
02"
0N"
0j"
0(#
0D#
0%
#35000
1l
0+"
0)"
0M
0N
0i
0j
0'"
0("
bx0 c
bx0 e
0d
bx0 f
bx0 h
0g
bx0 !"
bx0 #"
0""
bx0 $"
bx0 &"
0%"
bx0 ="
bx0 ?"
b1 /
0>"
bx0 @"
bx0 B"
b1 .
0A"
15
0Q
b1 ,
13
0O
1m
16
1@
1R
1\
b100 *
1o
0k
07
0S
0n
0x
09
1>
0U
1Z
0p
1w
0/"
14"
0K"
1P"
0g"
1l"
0%#
1*#
0A#
1F#
1<
1X
1u
12"
1N"
1j"
1(#
1D#
1%
#40000
b10 6#
b10 8#
0r
b0 3#
b0 5#
1s
b1 J
b1 L
b0 f
b0 h
b0 $"
b0 &"
b0 @"
b0 B"
b0 \"
b0 ^"
b0 x"
b0 z"
b0 R#
b0 T#
1W
0q
11"
1M"
1i"
0'#
1C#
01#
b11 G
b11 I
b10 c
b10 e
b10 !"
b10 #"
b10 ="
b10 ?"
b10 Y"
b10 ["
b10 u"
b10 w"
b10 O#
b10 Q#
09
0V
00"
0L"
0h"
1&#
0B#
0F
0b
0~
0<"
0X"
0t"
12#
0N#
1T
1m
1."
1J"
1f"
0$#
1@#
1E
1a
1}
1;"
1W"
1s"
b10111111 0
1M#
15
1Q
1l
1+"
1G"
1c"
0!#
1=#
13
1O
1)"
1E"
1a"
0}"
1;#
1C
1_
1{
19"
1U"
1q"
0/#
1K#
11
02
1M
0N
1i
0j
1'"
0("
1C"
0D"
1_"
0`"
0{"
1|"
19#
0:#
0A
1B
0]
1^
0y
1z
07"
18"
0S"
1T"
0o"
1p"
1-#
0.#
0I#
1J#
b10111111 !
b10111111 +
1H
0K
1d
0g
1""
0%"
1>"
0A"
1Z"
0]"
1v"
0y"
04#
17#
b10111111 /
1P#
b1000000 .
0S#
1D
1`
1|
1:"
1V"
1r"
10#
1L#
b10111111 &
1$
1"
1;
0:
18
0>
0U
0Z
1p
0w
0/"
04"
0K"
0P"
0g"
0l"
1%#
0*#
0A#
0F#
0<
0X
0u
02"
0N"
0j"
0(#
0D#
0%
b10111111 U#
#45000
0m
0l
1!#
1}"
zC
z_
z{
z9"
zU"
zq"
z/#
zK#
12
1N
1j
1("
1D"
1`"
1{"
09#
1A
1]
1y
17"
1S"
1o"
1.#
1I#
bz !
bz +
1K
1g
1%"
1A"
1]"
b1111111 .
1y"
14#
b1111111 /
0P#
0D
0`
0|
0:"
0V"
0r"
00#
0L#
bz &
0$
0"
b1 3#
b1 5#
b11 6#
b11 8#
b11 u"
b11 w"
b1 x"
b1 z"
b11 Y"
b11 ["
b1 \"
b1 ^"
b11 ="
b11 ?"
b1 @"
b1 B"
b11 !"
b11 #"
b1 $"
b1 &"
b11 c
b11 e
b1 f
b1 h
b1111111 ,
04
05
0P
0Q
0*"
0+"
0F"
0G"
0b"
0c"
1<#
b10111111 *
1=#
17
03
1S
0O
1-"
0)"
1I"
0E"
1e"
0a"
1?#
0;#
06
0@
0R
0\
0,"
06"
0H"
0R"
0d"
0n"
0>#
0H#
08
1?
0T
1[
0p
1w
0."
15"
0J"
1Q"
0f"
1m"
0%#
1*#
0@#
1G#
1=
1Y
1u
13"
1O"
1k"
1(#
1E#
1%
#50000
1:
1V
1r
10"
1L"
1h"
1'#
0;
0W
0s
01"
0M"
0i"
0&#
19
0?
1U
0[
1q
0w
1/"
05"
1K"
0Q"
1g"
0m"
1$#
0*#
1@#
0G#
0=
0Y
0u
03"
0O"
0k"
0(#
0E#
0%
#55000
1=#
1~"
1<#
0-
0M
0N
0i
0j
0'"
0("
0C"
0D"
0_"
0`"
0{"
0|"
09#
0:#
b10 c
b10 e
0d
b0 f
b0 h
0g
b10 !"
b10 #"
0""
b0 $"
b0 &"
0%"
b10 ="
b10 ?"
0>"
b0 @"
b0 B"
0A"
b10 Y"
b10 ["
0Z"
b0 \"
b0 ^"
0]"
b10 u"
b10 w"
0v"
b0 x"
b0 z"
0y"
b0 3#
b0 5#
04#
b10 6#
b10 8#
07#
b10 O#
b10 Q#
b1 /
0P#
b0 R#
b0 T#
b1 .
0S#
15
0Q
0m
0+"
0G"
0c"
b1 ,
13
0O
0k
0)"
0E"
0a"
1!#
16
1@
1R
1\
1n
1x
1,"
16"
1H"
1R"
1d"
1n"
b11000000 *
1##
0}"
07
0S
0o
0-"
0I"
0e"
0"#
0,#
09
1>
0U
1Z
0q
1v
0/"
14"
0K"
1P"
0g"
1l"
0$#
1+#
0@#
1G#
1<
1X
1t
12"
1N"
1j"
1)#
1E#
1%
#60000
1C#
0A#
1=#
09
1&#
1<#
0'#
15
0W
1s
11"
0M"
1i"
1%#
1N
0j
0("
1D"
0`"
0:#
13
1V
0r
00"
1L"
0h"
b1 J
b1 L
b10 f
b10 h
1g
b0 $"
b0 &"
0%"
b0 @"
b0 B"
0A"
b10 \"
b10 ^"
1]"
b0 x"
b0 z"
0y"
b10 6#
b10 8#
b0 R#
b0 T#
0S#
11
0{"
0T
1p
1."
0J"
1f"
0!#
b11 G
b11 I
1H
b0 c
b0 e
b10 !"
b10 #"
b10 ="
b10 ?"
b0 Y"
b0 ["
b10 u"
b10 w"
b0 3#
b0 5#
04#
b10 O#
b10 Q#
0Q
1m
1+"
0G"
1c"
0~"
12#
0O
1k
1)"
0E"
1a"
1E
0F
0a
1b
1}
0~
1;"
0<"
0W"
1X"
1s"
0t"
01#
b10101101 0
1M#
0N#
1C
0_
1{
19"
0U"
1q"
0/#
1K#
02
0M
1i
1'"
0C"
1_"
1|"
19#
0A
1B
1]
0^
0y
1z
07"
18"
1S"
0T"
0o"
1p"
1-#
0.#
0I#
1J#
b10101101 !
b10101101 +
0K
0d
1""
1>"
0Z"
1v"
b1010010 .
17#
b10101101 /
1P#
1D
1`
1|
1:"
1V"
1r"
10#
1L#
b10101101 &
1$
1"
1;
0:
18
0>
1U
0Z
0q
0v
0/"
04"
1K"
0P"
0g"
0l"
0$#
0+#
1@#
0G#
0<
0X
0t
02"
0N"
0j"
0)#
0E#
0%
b10101101 U#
#65000
1Q
1O
zC
z_
z{
z9"
zU"
zq"
z/#
zK#
12
1M
0i
0'"
0D"
0_"
0|"
09#
1A
1^
1y
17"
1T"
1o"
1.#
1I#
bz !
bz +
1K
1d
0""
0>"
0]"
0v"
b11 .
07#
b11 /
0P#
0D
0`
0|
0:"
0V"
0r"
00#
0L#
bz &
0$
0"
b1 c
b1 e
b11 f
b11 h
b11 ,
04
05
1l
1m
1*"
1+"
1b"
1c"
17
03
1o
0k
1-"
0)"
1e"
0a"
1"#
1,#
b10101101 *
06
0@
0n
0x
0,"
06"
0d"
0n"
0##
08
1?
0U
1Z
0p
1w
0."
15"
0K"
1P"
0f"
1m"
0%#
1*#
0@#
1G#
1=
1X
1u
13"
1N"
1k"
1(#
1E#
1%
#70000
1:
1W
0;
0V
19
0?
1T
0Z
1p
0w
1."
05"
1K"
0P"
1f"
0m"
1%#
0*#
1@#
0G#
0=
0X
0u
03"
0N"
0k"
0(#
0E#
0%
#75000
bz '
0#
0"
0G"
0E"
1+"
0C"
0D"
1*"
b0 Y"
b0 ["
0Z"
b10 \"
b10 ^"
0]"
1m
0'"
0("
1P
1l
b10 ="
b10 ?"
0>"
b0 @"
b0 B"
0A"
0M
0N
0i
0j
b0 c
b0 e
0d
b10 f
b10 h
0g
b10 !"
b10 #"
b1 /
0""
b0 $"
b0 &"
b1 .
0%"
15
b1 ,
13
1Q
16
1@
b10101110 *
1S
0O
07
0R
0\
09
1>
0T
1[
0p
1w
0."
15"
0K"
1P"
0f"
1m"
0%#
1*#
0@#
1G#
1<
1Y
1u
13"
1N"
1k"
1(#
1E#
1%
#80000
0C
1_
1{
19"
0U"
1q"
0/#
1K#
b10101110 !
b10101110 +
1#
1"
1;
0:
18
0>
1T
0[
1p
0w
1."
05"
1K"
0P"
1f"
0m"
1%#
0*#
1@#
0G#
0<
0Y
0u
03"
0N"
0k"
0(#
0E#
0%
#85000
z_
z{
z9"
zU"
zq"
z/#
zK#
0"
0#
b10101110 '
1G"
1E"
0+"
1C"
1D"
0*"
b1 Y"
b1 ["
1Z"
b11 \"
b11 ^"
1]"
0m
1'"
1("
0l
b11 ="
b11 ?"
1>"
b1 @"
b1 B"
1A"
0Q
1i
1j
0P
b11 !"
b11 #"
1""
b1 $"
b1 &"
1%"
1M
1N
b1 c
b1 e
b11111 /
1d
b11 f
b11 h
b11111 .
1g
b11111 ,
zC
b10101111 *
bz !
bz +
05
17
03
06
0@
08
1?
0T
1[
0p
1w
0."
15"
0K"
1P"
0f"
1m"
0%#
1*#
0@#
1G#
1=
1Y
1u
13"
1N"
1k"
1(#
1E#
1%
#90000
1:
1V
1r
10"
1M"
0;
0W
0s
01"
0L"
19
0?
1U
0[
1q
0w
1/"
05"
1J"
0P"
1f"
0m"
1%#
0*#
1@#
0G#
0=
0Y
0u
03"
0N"
0k"
0(#
0E#
0%
#95000
0!#
0}"
1c"
0{"
0|"
1F"
1b"
b0 3#
b0 5#
04#
b10 6#
b10 8#
07#
0M
0N
0i
0j
0'"
0("
0C"
0D"
0_"
0`"
b0 c
b0 e
0d
b10 f
b10 h
0g
b10 !"
b10 #"
0""
b0 $"
b0 &"
0%"
b10 ="
b10 ?"
0>"
b0 @"
b0 B"
0A"
b0 Y"
b0 ["
0Z"
b10 \"
b10 ^"
0]"
b10 u"
b10 w"
b1 /
0v"
b0 x"
b0 z"
b1 .
0y"
15
0Q
0m
0+"
b1 ,
13
0O
0k
0)"
1G"
16
1@
1R
1\
1n
1x
1,"
16"
b10110000 *
1I"
0E"
07
0S
0o
0-"
0H"
0R"
09
1>
0U
1Z
0q
1v
0/"
14"
0J"
1Q"
0f"
1m"
0%#
1*#
0@#
1G#
1<
1X
1t
12"
1O"
1k"
1(#
1E#
1%
#100000
1i"
1C#
0g"
0A#
1W
1'#
1c"
1=#
09
0V
0&#
0L"
1b"
1<#
1T
1$#
1M"
15
1Q
1!#
1s
11"
0K"
0j
0("
0`"
0:#
13
1O
1}"
0r
00"
b1 J
b1 L
b0 f
b0 h
b0 $"
b0 &"
0%"
b0 @"
b0 B"
0A"
b0 \"
b0 ^"
b0 x"
b0 z"
0y"
b0 6#
b0 8#
b0 R#
b0 T#
0S#
11
1M
1C"
1{"
1p
1."
1G"
b11 G
b11 I
1H
b10 c
b10 e
1d
b10 !"
b10 #"
b10 ="
b10 ?"
b10 Y"
b10 ["
1Z"
b10 u"
b10 w"
b10 3#
b10 5#
14#
b10 O#
b10 Q#
1m
1+"
1F"
0b
0X"
02#
1k
1)"
1E
0F
1a
1}
0~
1;"
0<"
1W"
1s"
0t"
11#
b11111111 0
1M#
0N#
1C
1_
1{
19"
1U"
1q"
1/#
1K#
02
0N
1i
1'"
0D"
1_"
0|"
19#
0A
1B
0]
1^
0y
1z
07"
18"
0S"
1T"
0o"
1p"
0-#
1.#
0I#
1J#
b11111111 !
b11111111 +
0K
0g
1""
1>"
0]"
1v"
b0 .
07#
b11111111 /
1P#
1D
1`
1|
1:"
1V"
1r"
10#
1L#
b11111111 &
1$
1"
1;
0:
18
0>
0U
0Z
0q
0v
0/"
04"
1J"
0Q"
1f"
0m"
0%#
0*#
1@#
0G#
0<
0X
0t
02"
0O"
0k"
0(#
0E#
0%
b11111111 U#
#105000
0G"
0c"
0=#
0F"
0b"
0<#
12
1N
1j
1("
1D"
1`"
1|"
1:#
1A
1]
1y
17"
1S"
1o"
1-#
1I#
1K
1g
1%"
1A"
1]"
1y"
17#
b11111111 .
1S#
0D
0`
0|
0:"
0V"
0r"
00#
0L#
1#
bz &
0$
1"
1-
b11 O#
b11 Q#
b1 R#
b1 T#
b11 3#
b11 5#
b1 6#
b1 8#
b11 u"
b11 w"
b1 x"
b1 z"
b11 Y"
b11 ["
b1 \"
b1 ^"
b11 ="
b11 ?"
b1 @"
b1 B"
b11 !"
b11 #"
b1 $"
b1 &"
b11 c
b11 e
b1 f
b1 h
b111111111 ,
04
05
0P
0Q
0l
0m
0*"
0+"
0~"
b11111111 *
0!#
17
03
1S
0O
1o
0k
1-"
0)"
1##
0}"
06
0@
0R
0\
0n
0x
0,"
06"
0"#
0,#
08
1?
0T
1[
0p
1w
0."
15"
0J"
1Q"
0f"
1m"
0$#
1+#
0@#
1G#
1=
1Y
1u
13"
1O"
1k"
1)#
1E#
1%
#110000
1:
1V
1r
10"
1L"
1h"
1&#
1B#
0;
0W
0s
01"
0M"
0i"
0'#
0C#
19
0?
1U
0[
1q
0w
1/"
05"
1K"
0Q"
1g"
0m"
1%#
0+#
1A#
0G#
0=
0Y
0u
03"
0O"
0k"
0)#
0E#
0%
