testbench/register_bank_tb.vcd
$date
	Sat Jul 10 01:39:58 2021
$end
$version
	Icarus Verilog
$end
$timescale
	1ps
$end
$scope module register_bank_tb $end
$var wire 8 ! data_bus [7:0] $end
$var reg 1 " CS $end
$var reg 1 # RD_WR $end
$var reg 3 $ address [2:0] $end
$var reg 1 % clk $end
$var reg 8 & rdata [7:0] $end
$var reg 1 ' reset $end
$var reg 8 ( wdata [7:0] $end
$var integer 32 ) i [31:0] $end
$scope module reg_bank $end
$var wire 1 " CS $end
$var wire 1 # RD_WR $end
$var wire 3 * address [2:0] $end
$var wire 1 % clk $end
$var wire 8 + data [7:0] $end
$var wire 1 ' reset $end
$var reg 1 , EN $end
$var integer 32 - i [31:0] $end
$upscope $end
$scope task do_read $end
$var reg 3 . addr [2:0] $end
$upscope $end
$scope task do_write $end
$var reg 3 / addr [2:0] $end
$var reg 8 0 w_data [7:0] $end
$upscope $end
$upscope $end
$enddefinitions $end
#0
$dumpvars
bx 0
bx /
bx .
b111 -
0,
bz +
bx *
bx )
bz (
0'
bx &
0%
bx $
x#
x"
bz !
$end
#5000
1%
#10000
0%
#13000
1'
#15000
1%
#20000
0%
#23000
b100100 !
b100100 +
b100100 (
b0 $
b0 *
0#
1"
b100100 0
b0 /
b0 )
#25000
b1 $
b1 *
b10000001 !
b10000001 +
b10000001 (
1"
b10000001 0
b1 /
b1 )
1%
#30000
0%
#35000
b10 $
b10 *
b1001 !
b1001 +
b1001 (
1"
b1001 0
b10 /
b10 )
1%
#40000
0%
#45000
b11 $
b11 *
bx !
bx +
bx (
1"
bx 0
b11 /
b11 )
1%
#50000
0%
#55000
b100 $
b100 *
bx !
bx +
bx (
1"
b100 /
b100 )
1%
#60000
0%
#65000
b101 $
b101 *
bx !
bx +
bx (
1"
b101 /
b101 )
1%
#70000
0%
#75000
b110 $
b110 *
bx !
bx +
bx (
1"
b110 /
b110 )
1%
#80000
0%
#85000
b111 $
b111 *
bx !
bx +
bx (
1"
b111 /
b111 )
1%
#90000
0%
#95000
b0 $
b0 *
1#
bz !
bz +
bz (
1"
b0 .
b0 )
1%
#100000
0%
#105000
b1 $
b1 *
1"
bz &
b10000001 !
b10000001 +
b1 .
b1 )
1,
1%
#110000
0%
#115000
b1001 !
b1001 +
b10 $
b10 *
1"
b10000001 &
b10 .
b10 )
1%
#120000
0%
#125000
bx !
bx +
b11 $
b11 *
1"
b1001 &
b11 .
b11 )
1%
#130000
0%
#135000
b100 $
b100 *
1"
bx &
b100 .
b100 )
1%
#140000
0%
#145000
b101 $
b101 *
1"
b101 .
b101 )
1%
#150000
0%
#155000
b110 $
b110 *
1"
b110 .
b110 )
1%
#160000
0%
#165000
b111 $
b111 *
1"
b111 .
b111 )
1%
#170000
0%
#175000
0"
b1000 )
1%
